[
  {
    "to": {
      "name": "Microsoft.ChakraCore",
      "version": "1.11.18"
    },
    "range": "[1.11.18, )"
  },
  {
    "to": {
      "name": "Microsoft.ChakraCore",
      "version": "1.11.18"
    },
    "range": "[1.12, )"
  },
  {
    "to": {
      "name": "jive",
      "version": "0.1.0"
    },
    "range": "[0.2.0, )"
  },
  {
    "from": {
      "name": "Antlr3.Runtime",
      "version": "3.5.1"
    },
    "to": {
      "name": "NETStandard.Library",
      "version": "1.6.1"
    },
    "range": "1.6.0"
  },
  {
    "from": {
      "name": "Microsoft.Win32.Primitives",
      "version": "4.3.0"
    },
    "to": {
      "name": "Microsoft.NETCore.Platforms",
      "version": "1.1.0"
    },
    "range": "1.1.0"
  },
  {
    "to": {
      "name": "NHibernate",
      "version": "5.2.6"
    },
    "range": "[5.2.6, )"
  },
  {
    "from": {
      "name": "Iesi.Collections",
      "version": "4.0.4"
    },
    "to": {
      "name": "NETStandard.Library",
      "version": "1.6.1"
    },
    "range": "1.6.1"
  },
  {
    "from": {
      "name": "Iesi.Collections",
      "version": "4.0.4"
    },
    "to": {
      "name": "System.Runtime.Serialization.Formatters",
      "version": "4.3.0"
    },
    "range": "4.3.0"
  },
  {
    "from": {
      "name": "Microsoft.Win32.Primitives",
      "version": "4.3.0"
    },
    "to": {
      "name": "Microsoft.NETCore.Targets",
      "version": "1.1.0"
    },
    "range": "1.1.0"
  },
  {
    "from": {
      "name": "Microsoft.Win32.Primitives",
      "version": "4.3.0"
    },
    "to": {
      "name": "System.Runtime",
      "version": "4.3.0"
    },
    "range": "4.3.0"
  },
  {
    "from": {
      "name": "NETStandard.Library",
      "version": "1.6.1"
    },
    "to": {
      "name": "Microsoft.NETCore.Platforms",
      "version": "1.1.0"
    },
    "range": "1.1.0"
  },
  {
    "from": {
      "name": "NETStandard.Library",
      "version": "1.6.1"
    },
    "to": {
      "name": "Microsoft.Win32.Primitives",
      "version": "4.3.0"
    },
    "range": "4.3.0"
  },
  {
    "from": {
      "name": "NETStandard.Library",
      "version": "1.6.1"
    },
    "to": {
      "name": "System.AppContext",
      "version": "4.3.0"
    },
    "range": "4.3.0"
  },
  {
    "from": {
      "name": "NETStandard.Library",
      "version": "1.6.1"
    },
    "to": {
      "name": "System.Collections",
      "version": "4.3.0"
    },
    "range": "4.3.0"
  },
  {
    "from": {
      "name": "NETStandard.Library",
      "version": "1.6.1"
    },
    "to": {
      "name": "System.Collections.Concurrent",
      "version": "4.3.0"
    },
    "range": "4.3.0"
  },
  {
    "from": {
      "name": "NETStandard.Library",
      "version": "1.6.1"
    },
    "to": {
      "name": "System.Console",
      "version": "4.3.0"
    },
    "range": "4.3.0"
  },
  {
    "from": {
      "name": "NETStandard.Library",
      "version": "1.6.1"
    },
    "to": {
      "name": "System.Diagnostics.Debug",
      "version": "4.3.0"
    },
    "range": "4.3.0"
  },
  {
    "from": {
      "name": "NETStandard.Library",
      "version": "1.6.1"
    },
    "to": {
      "name": "System.Diagnostics.Tools",
      "version": "4.3.0"
    },
    "range": "4.3.0"
  },
  {
    "from": {
      "name": "NETStandard.Library",
      "version": "1.6.1"
    },
    "to": {
      "name": "System.Diagnostics.Tracing",
      "version": "4.3.0"
    },
    "range": "4.3.0"
  },
  {
    "from": {
      "name": "NETStandard.Library",
      "version": "1.6.1"
    },
    "to": {
      "name": "System.Globalization",
      "version": "4.3.0"
    },
    "range": "4.3.0"
  },
  {
    "from": {
      "name": "NETStandard.Library",
      "version": "1.6.1"
    },
    "to": {
      "name": "System.Globalization.Calendars",
      "version": "4.3.0"
    },
    "range": "4.3.0"
  },
  {
    "from": {
      "name": "NETStandard.Library",
      "version": "1.6.1"
    },
    "to": {
      "name": "System.IO",
      "version": "4.3.0"
    },
    "range": "4.3.0"
  },
  {
    "from": {
      "name": "NETStandard.Library",
      "version": "1.6.1"
    },
    "to": {
      "name": "System.IO.Compression",
      "version": "4.3.0"
    },
    "range": "4.3.0"
  },
  {
    "from": {
      "name": "NETStandard.Library",
      "version": "1.6.1"
    },
    "to": {
      "name": "System.IO.Compression.ZipFile",
      "version": "4.3.0"
    },
    "range": "4.3.0"
  },
  {
    "from": {
      "name": "NETStandard.Library",
      "version": "1.6.1"
    },
    "to": {
      "name": "System.IO.FileSystem",
      "version": "4.3.0"
    },
    "range": "4.3.0"
  },
  {
    "from": {
      "name": "NETStandard.Library",
      "version": "1.6.1"
    },
    "to": {
      "name": "System.IO.FileSystem.Primitives",
      "version": "4.3.0"
    },
    "range": "4.3.0"
  },
  {
    "from": {
      "name": "NETStandard.Library",
      "version": "1.6.1"
    },
    "to": {
      "name": "System.Linq",
      "version": "4.3.0"
    },
    "range": "4.3.0"
  },
  {
    "from": {
      "name": "NETStandard.Library",
      "version": "1.6.1"
    },
    "to": {
      "name": "System.Linq.Expressions",
      "version": "4.3.0"
    },
    "range": "4.3.0"
  },
  {
    "from": {
      "name": "NETStandard.Library",
      "version": "1.6.1"
    },
    "to": {
      "name": "System.Net.Http",
      "version": "4.3.0"
    },
    "range": "4.3.0"
  },
  {
    "from": {
      "name": "NETStandard.Library",
      "version": "1.6.1"
    },
    "to": {
      "name": "System.Net.Primitives",
      "version": "4.3.0"
    },
    "range": "4.3.0"
  },
  {
    "from": {
      "name": "NETStandard.Library",
      "version": "1.6.1"
    },
    "to": {
      "name": "System.Net.Sockets",
      "version": "4.3.0"
    },
    "range": "4.3.0"
  },
  {
    "from": {
      "name": "NETStandard.Library",
      "version": "1.6.1"
    },
    "to": {
      "name": "System.ObjectModel",
      "version": "4.3.0"
    },
    "range": "4.3.0"
  },
  {
    "from": {
      "name": "NETStandard.Library",
      "version": "1.6.1"
    },
    "to": {
      "name": "System.Reflection",
      "version": "4.3.0"
    },
    "range": "4.3.0"
  },
  {
    "from": {
      "name": "NETStandard.Library",
      "version": "1.6.1"
    },
    "to": {
      "name": "System.Reflection.Extensions",
      "version": "4.3.0"
    },
    "range": "4.3.0"
  },
  {
    "from": {
      "name": "NETStandard.Library",
      "version": "1.6.1"
    },
    "to": {
      "name": "System.Reflection.Primitives",
      "version": "4.3.0"
    },
    "range": "4.3.0"
  },
  {
    "from": {
      "name": "NETStandard.Library",
      "version": "1.6.1"
    },
    "to": {
      "name": "System.Resources.ResourceManager",
      "version": "4.3.0"
    },
    "range": "4.3.0"
  },
  {
    "from": {
      "name": "NETStandard.Library",
      "version": "1.6.1"
    },
    "to": {
      "name": "System.Runtime",
      "version": "4.3.0"
    },
    "range": "4.3.0"
  },
  {
    "from": {
      "name": "NETStandard.Library",
      "version": "1.6.1"
    },
    "to": {
      "name": "System.Runtime.Extensions",
      "version": "4.3.0"
    },
    "range": "4.3.0"
  },
  {
    "from": {
      "name": "NETStandard.Library",
      "version": "1.6.1"
    },
    "to": {
      "name": "System.Runtime.Handles",
      "version": "4.3.0"
    },
    "range": "4.3.0"
  },
  {
    "from": {
      "name": "NETStandard.Library",
      "version": "1.6.1"
    },
    "to": {
      "name": "System.Runtime.InteropServices",
      "version": "4.3.0"
    },
    "range": "4.3.0"
  },
  {
    "from": {
      "name": "NETStandard.Library",
      "version": "1.6.1"
    },
    "to": {
      "name": "System.Runtime.InteropServices.RuntimeInformation",
      "version": "4.3.0"
    },
    "range": "4.3.0"
  },
  {
    "from": {
      "name": "NETStandard.Library",
      "version": "1.6.1"
    },
    "to": {
      "name": "System.Runtime.Numerics",
      "version": "4.3.0"
    },
    "range": "4.3.0"
  },
  {
    "from": {
      "name": "NETStandard.Library",
      "version": "1.6.1"
    },
    "to": {
      "name": "System.Security.Cryptography.Algorithms",
      "version": "4.3.0"
    },
    "range": "4.3.0"
  },
  {
    "from": {
      "name": "NETStandard.Library",
      "version": "1.6.1"
    },
    "to": {
      "name": "System.Security.Cryptography.Encoding",
      "version": "4.3.0"
    },
    "range": "4.3.0"
  },
  {
    "from": {
      "name": "NETStandard.Library",
      "version": "1.6.1"
    },
    "to": {
      "name": "System.Security.Cryptography.Primitives",
      "version": "4.3.0"
    },
    "range": "4.3.0"
  },
  {
    "from": {
      "name": "NETStandard.Library",
      "version": "1.6.1"
    },
    "to": {
      "name": "System.Security.Cryptography.X509Certificates",
      "version": "4.3.0"
    },
    "range": "4.3.0"
  },
  {
    "from": {
      "name": "NETStandard.Library",
      "version": "1.6.1"
    },
    "to": {
      "name": "System.Text.Encoding",
      "version": "4.3.0"
    },
    "range": "4.3.0"
  },
  {
    "from": {
      "name": "NETStandard.Library",
      "version": "1.6.1"
    },
    "to": {
      "name": "System.Text.Encoding.Extensions",
      "version": "4.3.0"
    },
    "range": "4.3.0"
  },
  {
    "from": {
      "name": "NETStandard.Library",
      "version": "1.6.1"
    },
    "to": {
      "name": "System.Text.RegularExpressions",
      "version": "4.3.0"
    },
    "range": "4.3.0"
  },
  {
    "from": {
      "name": "NETStandard.Library",
      "version": "1.6.1"
    },
    "to": {
      "name": "System.Threading",
      "version": "4.3.0"
    },
    "range": "4.3.0"
  },
  {
    "from": {
      "name": "NETStandard.Library",
      "version": "1.6.1"
    },
    "to": {
      "name": "System.Threading.Tasks",
      "version": "4.3.0"
    },
    "range": "4.3.0"
  },
  {
    "from": {
      "name": "NETStandard.Library",
      "version": "1.6.1"
    },
    "to": {
      "name": "System.Threading.Timer",
      "version": "4.3.0"
    },
    "range": "4.3.0"
  },
  {
    "from": {
      "name": "NETStandard.Library",
      "version": "1.6.1"
    },
    "to": {
      "name": "System.Xml.ReaderWriter",
      "version": "4.3.0"
    },
    "range": "4.3.0"
  },
  {
    "from": {
      "name": "NETStandard.Library",
      "version": "1.6.1"
    },
    "to": {
      "name": "System.Xml.XDocument",
      "version": "4.3.0"
    },
    "range": "4.3.0"
  },
  {
    "from": {
      "name": "NHibernate",
      "version": "5.2.6"
    },
    "to": {
      "name": "Antlr3.Runtime",
      "version": "3.5.1"
    },
    "range": "[3.5.1, 4.0.0)"
  },
  {
    "from": {
      "name": "NHibernate",
      "version": "5.2.6"
    },
    "to": {
      "name": "Iesi.Collections",
      "version": "4.0.4"
    },
    "range": "[4.0.4, 5.0.0)"
  },
  {
    "from": {
      "name": "NHibernate",
      "version": "5.2.6"
    },
    "to": {
      "name": "Remotion.Linq",
      "version": "2.2.0"
    },
    "range": "[2.2.0, 3.0.0)"
  },
  {
    "from": {
      "name": "NHibernate",
      "version": "5.2.6"
    },
    "to": {
      "name": "Remotion.Linq.EagerFetching",
      "version": "2.2.0"
    },
    "range": "[2.2.0, 3.0.0)"
  },
  {
    "from": {
      "name": "NHibernate",
      "version": "5.2.6"
    },
    "to": {
      "name": "System.Configuration.ConfigurationManager",
      "version": "4.4.1"
    },
    "range": "4.4.1"
  },
  {
    "from": {
      "name": "Remotion.Linq",
      "version": "2.2.0"
    },
    "to": {
      "name": "System.Collections",
      "version": "4.3.0"
    },
    "range": "4.0.11"
  },
  {
    "from": {
      "name": "Remotion.Linq",
      "version": "2.2.0"
    },
    "to": {
      "name": "System.Diagnostics.Debug",
      "version": "4.3.0"
    },
    "range": "4.0.11"
  },
  {
    "from": {
      "name": "Remotion.Linq",
      "version": "2.2.0"
    },
    "to": {
      "name": "System.Linq",
      "version": "4.3.0"
    },
    "range": "4.1.0"
  },
  {
    "from": {
      "name": "Remotion.Linq",
      "version": "2.2.0"
    },
    "to": {
      "name": "System.Linq.Expressions",
      "version": "4.3.0"
    },
    "range": "4.1.0"
  },
  {
    "from": {
      "name": "Remotion.Linq",
      "version": "2.2.0"
    },
    "to": {
      "name": "System.Linq.Queryable",
      "version": "4.0.1"
    },
    "range": "4.0.1"
  },
  {
    "from": {
      "name": "Remotion.Linq",
      "version": "2.2.0"
    },
    "to": {
      "name": "System.ObjectModel",
      "version": "4.3.0"
    },
    "range": "4.0.12"
  },
  {
    "from": {
      "name": "Remotion.Linq",
      "version": "2.2.0"
    },
    "to": {
      "name": "System.Reflection",
      "version": "4.3.0"
    },
    "range": "4.1.0"
  },
  {
    "from": {
      "name": "Remotion.Linq",
      "version": "2.2.0"
    },
    "to": {
      "name": "System.Reflection.Extensions",
      "version": "4.3.0"
    },
    "range": "4.0.1"
  },
  {
    "from": {
      "name": "Remotion.Linq",
      "version": "2.2.0"
    },
    "to": {
      "name": "System.Runtime",
      "version": "4.3.0"
    },
    "range": "4.1.0"
  },
  {
    "from": {
      "name": "Remotion.Linq",
      "version": "2.2.0"
    },
    "to": {
      "name": "System.Runtime.Extensions",
      "version": "4.3.0"
    },
    "range": "4.1.0"
  },
  {
    "from": {
      "name": "Remotion.Linq",
      "version": "2.2.0"
    },
    "to": {
      "name": "System.Threading",
      "version": "4.3.0"
    },
    "range": "4.0.11"
  },
  {
    "from": {
      "name": "Remotion.Linq.EagerFetching",
      "version": "2.2.0"
    },
    "to": {
      "name": "Remotion.Linq",
      "version": "2.2.0"
    },
    "range": "2.2.0"
  },
  {
    "from": {
      "name": "Remotion.Linq.EagerFetching",
      "version": "2.2.0"
    },
    "to": {
      "name": "System.Collections",
      "version": "4.3.0"
    },
    "range": "4.0.11"
  },
  {
    "from": {
      "name": "Remotion.Linq.EagerFetching",
      "version": "2.2.0"
    },
    "to": {
      "name": "System.Linq",
      "version": "4.3.0"
    },
    "range": "4.1.0"
  },
  {
    "from": {
      "name": "Remotion.Linq.EagerFetching",
      "version": "2.2.0"
    },
    "to": {
      "name": "System.Linq.Expressions",
      "version": "4.3.0"
    },
    "range": "4.1.0"
  },
  {
    "from": {
      "name": "Remotion.Linq.EagerFetching",
      "version": "2.2.0"
    },
    "to": {
      "name": "System.ObjectModel",
      "version": "4.3.0"
    },
    "range": "4.0.12"
  },
  {
    "from": {
      "name": "Remotion.Linq.EagerFetching",
      "version": "2.2.0"
    },
    "to": {
      "name": "System.Reflection",
      "version": "4.3.0"
    },
    "range": "4.1.0"
  },
  {
    "from": {
      "name": "Remotion.Linq.EagerFetching",
      "version": "2.2.0"
    },
    "to": {
      "name": "System.Runtime",
      "version": "4.3.0"
    },
    "range": "4.1.0"
  },
  {
    "from": {
      "name": "System.AppContext",
      "version": "4.3.0"
    },
    "to": {
      "name": "System.Runtime",
      "version": "4.3.0"
    },
    "range": "4.3.0"
  },
  {
    "from": {
      "name": "System.Buffers",
      "version": "4.3.0"
    },
    "to": {
      "name": "System.Diagnostics.Debug",
      "version": "4.3.0"
    },
    "range": "4.3.0"
  },
  {
    "from": {
      "name": "System.Buffers",
      "version": "4.3.0"
    },
    "to": {
      "name": "System.Diagnostics.Tracing",
      "version": "4.3.0"
    },
    "range": "4.3.0"
  },
  {
    "from": {
      "name": "System.Buffers",
      "version": "4.3.0"
    },
    "to": {
      "name": "System.Resources.ResourceManager",
      "version": "4.3.0"
    },
    "range": "4.3.0"
  },
  {
    "from": {
      "name": "System.Buffers",
      "version": "4.3.0"
    },
    "to": {
      "name": "System.Runtime",
      "version": "4.3.0"
    },
    "range": "4.3.0"
  },
  {
    "from": {
      "name": "System.Buffers",
      "version": "4.3.0"
    },
    "to": {
      "name": "System.Threading",
      "version": "4.3.0"
    },
    "range": "4.3.0"
  },
  {
    "from": {
      "name": "System.Collections",
      "version": "4.3.0"
    },
    "to": {
      "name": "Microsoft.NETCore.Platforms",
      "version": "1.1.0"
    },
    "range": "1.1.0"
  },
  {
    "from": {
      "name": "System.Collections",
      "version": "4.3.0"
    },
    "to": {
      "name": "Microsoft.NETCore.Targets",
      "version": "1.1.0"
    },
    "range": "1.1.0"
  },
  {
    "from": {
      "name": "System.Collections",
      "version": "4.3.0"
    },
    "to": {
      "name": "System.Runtime",
      "version": "4.3.0"
    },
    "range": "4.3.0"
  },
  {
    "from": {
      "name": "System.Collections.Concurrent",
      "version": "4.3.0"
    },
    "to": {
      "name": "System.Collections",
      "version": "4.3.0"
    },
    "range": "4.3.0"
  },
  {
    "from": {
      "name": "System.Collections.Concurrent",
      "version": "4.3.0"
    },
    "to": {
      "name": "System.Diagnostics.Debug",
      "version": "4.3.0"
    },
    "range": "4.3.0"
  },
  {
    "from": {
      "name": "System.Collections.Concurrent",
      "version": "4.3.0"
    },
    "to": {
      "name": "System.Diagnostics.Tracing",
      "version": "4.3.0"
    },
    "range": "4.3.0"
  },
  {
    "from": {
      "name": "System.Collections.Concurrent",
      "version": "4.3.0"
    },
    "to": {
      "name": "System.Globalization",
      "version": "4.3.0"
    },
    "range": "4.3.0"
  },
  {
    "from": {
      "name": "System.Collections.Concurrent",
      "version": "4.3.0"
    },
    "to": {
      "name": "System.Reflection",
      "version": "4.3.0"
    },
    "range": "4.3.0"
  },
  {
    "from": {
      "name": "System.Collections.Concurrent",
      "version": "4.3.0"
    },
    "to": {
      "name": "System.Resources.ResourceManager",
      "version": "4.3.0"
    },
    "range": "4.3.0"
  },
  {
    "from": {
      "name": "System.Collections.Concurrent",
      "version": "4.3.0"
    },
    "to": {
      "name": "System.Runtime",
      "version": "4.3.0"
    },
    "range": "4.3.0"
  },
  {
    "from": {
      "name": "System.Collections.Concurrent",
      "version": "4.3.0"
    },
    "to": {
      "name": "System.Runtime.Extensions",
      "version": "4.3.0"
    },
    "range": "4.3.0"
  },
  {
    "from": {
      "name": "System.Collections.Concurrent",
      "version": "4.3.0"
    },
    "to": {
      "name": "System.Threading",
      "version": "4.3.0"
    },
    "range": "4.3.0"
  },
  {
    "from": {
      "name": "System.Collections.Concurrent",
      "version": "4.3.0"
    },
    "to": {
      "name": "System.Threading.Tasks",
      "version": "4.3.0"
    },
    "range": "4.3.0"
  },
  {
    "from": {
      "name": "System.Console",
      "version": "4.3.0"
    },
    "to": {
      "name": "Microsoft.NETCore.Platforms",
      "version": "1.1.0"
    },
    "range": "1.1.0"
  },
  {
    "from": {
      "name": "System.Console",
      "version": "4.3.0"
    },
    "to": {
      "name": "Microsoft.NETCore.Targets",
      "version": "1.1.0"
    },
    "range": "1.1.0"
  },
  {
    "from": {
      "name": "System.Console",
      "version": "4.3.0"
    },
    "to": {
      "name": "System.IO",
      "version": "4.3.0"
    },
    "range": "4.3.0"
  },
  {
    "from": {
      "name": "System.Diagnostics.DiagnosticSource",
      "version": "4.3.0"
    },
    "to": {
      "name": "System.Collections",
      "version": "4.3.0"
    },
    "range": "4.3.0"
  },
  {
    "from": {
      "name": "System.Diagnostics.DiagnosticSource",
      "version": "4.3.0"
    },
    "to": {
      "name": "System.Diagnostics.Tracing",
      "version": "4.3.0"
    },
    "range": "4.3.0"
  },
  {
    "from": {
      "name": "System.Diagnostics.DiagnosticSource",
      "version": "4.3.0"
    },
    "to": {
      "name": "System.Reflection",
      "version": "4.3.0"
    },
    "range": "4.3.0"
  },
  {
    "from": {
      "name": "System.Diagnostics.DiagnosticSource",
      "version": "4.3.0"
    },
    "to": {
      "name": "System.Runtime",
      "version": "4.3.0"
    },
    "range": "4.3.0"
  },
  {
    "from": {
      "name": "System.Diagnostics.DiagnosticSource",
      "version": "4.3.0"
    },
    "to": {
      "name": "System.Threading",
      "version": "4.3.0"
    },
    "range": "4.3.0"
  },
  {
    "from": {
      "name": "System.Diagnostics.Tools",
      "version": "4.3.0"
    },
    "to": {
      "name": "Microsoft.NETCore.Platforms",
      "version": "1.1.0"
    },
    "range": "1.1.0"
  },
  {
    "from": {
      "name": "System.Diagnostics.Tracing",
      "version": "4.3.0"
    },
    "to": {
      "name": "Microsoft.NETCore.Platforms",
      "version": "1.1.0"
    },
    "range": "1.1.0"
  },
  {
    "from": {
      "name": "System.Diagnostics.Tracing",
      "version": "4.3.0"
    },
    "to": {
      "name": "Microsoft.NETCore.Targets",
      "version": "1.1.0"
    },
    "range": "1.1.0"
  },
  {
    "from": {
      "name": "System.Diagnostics.Tracing",
      "version": "4.3.0"
    },
    "to": {
      "name": "System.Runtime",
      "version": "4.3.0"
    },
    "range": "4.3.0"
  },
  {
    "from": {
      "name": "System.Globalization.Extensions",
      "version": "4.3.0"
    },
    "to": {
      "name": "Microsoft.NETCore.Platforms",
      "version": "1.1.0"
    },
    "range": "1.1.0"
  },
  {
    "from": {
      "name": "System.Globalization.Extensions",
      "version": "4.3.0"
    },
    "to": {
      "name": "System.Globalization",
      "version": "4.3.0"
    },
    "range": "4.3.0"
  },
  {
    "from": {
      "name": "System.Globalization.Extensions",
      "version": "4.3.0"
    },
    "to": {
      "name": "System.Resources.ResourceManager",
      "version": "4.3.0"
    },
    "range": "4.3.0"
  },
  {
    "from": {
      "name": "System.Globalization.Extensions",
      "version": "4.3.0"
    },
    "to": {
      "name": "System.Runtime",
      "version": "4.3.0"
    },
    "range": "4.3.0"
  },
  {
    "from": {
      "name": "System.Globalization.Extensions",
      "version": "4.3.0"
    },
    "to": {
      "name": "System.Runtime.Extensions",
      "version": "4.3.0"
    },
    "range": "4.3.0"
  },
  {
    "from": {
      "name": "System.Globalization.Extensions",
      "version": "4.3.0"
    },
    "to": {
      "name": "System.Runtime.InteropServices",
      "version": "4.3.0"
    },
    "range": "4.3.0"
  },
  {
    "from": {
      "name": "System.IO",
      "version": "4.3.0"
    },
    "to": {
      "name": "Microsoft.NETCore.Platforms",
      "version": "1.1.0"
    },
    "range": "1.1.0"
  },
  {
    "to": {
      "name": "MvcMailer",
      "version": "4.5.0"
    },
    "range": "[4.5.0, )"
  },
  {
    "from": {
      "name": "MvcMailer",
      "version": "4.5.0"
    },
    "to": {
      "name": "T4Scaffolding.Core",
      "version": "1.0.0"
    },
    "range": "1.0.0"
  },
  {
    "from": {
      "name": "System.Console",
      "version": "4.3.0"
    },
    "to": {
      "name": "System.Runtime",
      "version": "4.3.0"
    },
    "range": "4.3.0"
  },
  {
    "from": {
      "name": "System.Console",
      "version": "4.3.0"
    },
    "to": {
      "name": "System.Text.Encoding",
      "version": "4.3.0"
    },
    "range": "4.3.0"
  },
  {
    "from": {
      "name": "System.Diagnostics.Tools",
      "version": "4.3.0"
    },
    "to": {
      "name": "Microsoft.NETCore.Targets",
      "version": "1.1.0"
    },
    "range": "1.1.0"
  },
  {
    "from": {
      "name": "System.Diagnostics.Tools",
      "version": "4.3.0"
    },
    "to": {
      "name": "System.Runtime",
      "version": "4.3.0"
    },
    "range": "4.3.0"
  },
  {
    "from": {
      "name": "System.Globalization",
      "version": "4.3.0"
    },
    "to": {
      "name": "Microsoft.NETCore.Platforms",
      "version": "1.1.0"
    },
    "range": "1.1.0"
  },
  {
    "from": {
      "name": "System.Globalization",
      "version": "4.3.0"
    },
    "to": {
      "name": "Microsoft.NETCore.Targets",
      "version": "1.1.0"
    },
    "range": "1.1.0"
  },
  {
    "from": {
      "name": "System.Globalization",
      "version": "4.3.0"
    },
    "to": {
      "name": "System.Runtime",
      "version": "4.3.0"
    },
    "range": "4.3.0"
  },
  {
    "from": {
      "name": "System.IO",
      "version": "4.3.0"
    },
    "to": {
      "name": "Microsoft.NETCore.Targets",
      "version": "1.1.0"
    },
    "range": "1.1.0"
  },
  {
    "from": {
      "name": "System.IO",
      "version": "4.3.0"
    },
    "to": {
      "name": "System.Runtime",
      "version": "4.3.0"
    },
    "range": "4.3.0"
  },
  {
    "from": {
      "name": "System.IO",
      "version": "4.3.0"
    },
    "to": {
      "name": "System.Text.Encoding",
      "version": "4.3.0"
    },
    "range": "4.3.0"
  },
  {
    "from": {
      "name": "System.IO",
      "version": "4.3.0"
    },
    "to": {
      "name": "System.Threading.Tasks",
      "version": "4.3.0"
    },
    "range": "4.3.0"
  },
  {
    "from": {
      "name": "System.IO.Compression",
      "version": "4.3.0"
    },
    "to": {
      "name": "Microsoft.NETCore.Platforms",
      "version": "1.1.0"
    },
    "range": "1.1.0"
  },
  {
    "from": {
      "name": "System.IO.Compression",
      "version": "4.3.0"
    },
    "to": {
      "name": "System.Buffers",
      "version": "4.3.0"
    },
    "range": "4.3.0"
  },
  {
    "from": {
      "name": "System.IO.Compression",
      "version": "4.3.0"
    },
    "to": {
      "name": "System.Collections",
      "version": "4.3.0"
    },
    "range": "4.3.0"
  },
  {
    "from": {
      "name": "System.IO.Compression",
      "version": "4.3.0"
    },
    "to": {
      "name": "System.Diagnostics.Debug",
      "version": "4.3.0"
    },
    "range": "4.3.0"
  },
  {
    "from": {
      "name": "System.IO.Compression",
      "version": "4.3.0"
    },
    "to": {
      "name": "System.IO",
      "version": "4.3.0"
    },
    "range": "4.3.0"
  },
  {
    "from": {
      "name": "System.IO.Compression",
      "version": "4.3.0"
    },
    "to": {
      "name": "System.Resources.ResourceManager",
      "version": "4.3.0"
    },
    "range": "4.3.0"
  },
  {
    "from": {
      "name": "System.IO.Compression",
      "version": "4.3.0"
    },
    "to": {
      "name": "System.Runtime",
      "version": "4.3.0"
    },
    "range": "4.3.0"
  },
  {
    "from": {
      "name": "System.IO.Compression",
      "version": "4.3.0"
    },
    "to": {
      "name": "System.Runtime.Extensions",
      "version": "4.3.0"
    },
    "range": "4.3.0"
  },
  {
    "from": {
      "name": "System.IO.Compression",
      "version": "4.3.0"
    },
    "to": {
      "name": "System.Runtime.Handles",
      "version": "4.3.0"
    },
    "range": "4.3.0"
  },
  {
    "from": {
      "name": "System.IO.Compression",
      "version": "4.3.0"
    },
    "to": {
      "name": "System.Runtime.InteropServices",
      "version": "4.3.0"
    },
    "range": "4.3.0"
  },
  {
    "from": {
      "name": "System.IO.Compression",
      "version": "4.3.0"
    },
    "to": {
      "name": "System.Text.Encoding",
      "version": "4.3.0"
    },
    "range": "4.3.0"
  },
  {
    "from": {
      "name": "System.IO.Compression",
      "version": "4.3.0"
    },
    "to": {
      "name": "System.Threading",
      "version": "4.3.0"
    },
    "range": "4.3.0"
  },
  {
    "from": {
      "name": "System.IO.Compression",
      "version": "4.3.0"
    },
    "to": {
      "name": "System.Threading.Tasks",
      "version": "4.3.0"
    },
    "range": "4.3.0"
  },
  {
    "from": {
      "name": "System.IO.Compression",
      "version": "4.3.0"
    },
    "to": {
      "name": "runtime.native.System",
      "version": "4.3.0"
    },
    "range": "4.3.0"
  },
  {
    "from": {
      "name": "System.IO.Compression",
      "version": "4.3.0"
    },
    "to": {
      "name": "runtime.native.System.IO.Compression",
      "version": "4.3.0"
    },
    "range": "4.3.0"
  },
  {
    "from": {
      "name": "System.IO.FileSystem",
      "version": "4.3.0"
    },
    "to": {
      "name": "Microsoft.NETCore.Platforms",
      "version": "1.1.0"
    },
    "range": "1.1.0"
  },
  {
    "from": {
      "name": "System.IO.FileSystem",
      "version": "4.3.0"
    },
    "to": {
      "name": "Microsoft.NETCore.Targets",
      "version": "1.1.0"
    },
    "range": "1.1.0"
  },
  {
    "from": {
      "name": "System.IO.FileSystem",
      "version": "4.3.0"
    },
    "to": {
      "name": "System.Text.Encoding",
      "version": "4.3.0"
    },
    "range": "4.3.0"
  },
  {
    "from": {
      "name": "System.IO.FileSystem",
      "version": "4.3.0"
    },
    "to": {
      "name": "System.Threading.Tasks",
      "version": "4.3.0"
    },
    "range": "4.3.0"
  },
  {
    "from": {
      "name": "System.Linq.Expressions",
      "version": "4.3.0"
    },
    "to": {
      "name": "System.Collections",
      "version": "4.3.0"
    },
    "range": "4.3.0"
  },
  {
    "from": {
      "name": "System.Linq.Expressions",
      "version": "4.3.0"
    },
    "to": {
      "name": "System.Diagnostics.Debug",
      "version": "4.3.0"
    },
    "range": "4.3.0"
  },
  {
    "from": {
      "name": "System.Linq.Expressions",
      "version": "4.3.0"
    },
    "to": {
      "name": "System.Globalization",
      "version": "4.3.0"
    },
    "range": "4.3.0"
  },
  {
    "from": {
      "name": "System.Linq.Expressions",
      "version": "4.3.0"
    },
    "to": {
      "name": "System.IO",
      "version": "4.3.0"
    },
    "range": "4.3.0"
  },
  {
    "from": {
      "name": "System.Linq.Expressions",
      "version": "4.3.0"
    },
    "to": {
      "name": "System.Linq",
      "version": "4.3.0"
    },
    "range": "4.3.0"
  },
  {
    "from": {
      "name": "System.Linq.Expressions",
      "version": "4.3.0"
    },
    "to": {
      "name": "System.ObjectModel",
      "version": "4.3.0"
    },
    "range": "4.3.0"
  },
  {
    "from": {
      "name": "System.Linq.Expressions",
      "version": "4.3.0"
    },
    "to": {
      "name": "System.Reflection",
      "version": "4.3.0"
    },
    "range": "4.3.0"
  },
  {
    "from": {
      "name": "System.Linq.Expressions",
      "version": "4.3.0"
    },
    "to": {
      "name": "System.Reflection.Emit",
      "version": "4.3.0"
    },
    "range": "4.3.0"
  },
  {
    "from": {
      "name": "System.Reflection.Emit",
      "version": "4.3.0"
    },
    "to": {
      "name": "System.IO",
      "version": "4.3.0"
    },
    "range": "4.3.0"
  },
  {
    "from": {
      "name": "System.Reflection.Emit",
      "version": "4.3.0"
    },
    "to": {
      "name": "System.Reflection",
      "version": "4.3.0"
    },
    "range": "4.3.0"
  },
  {
    "from": {
      "name": "System.Reflection.Emit",
      "version": "4.3.0"
    },
    "to": {
      "name": "System.Reflection.Emit.ILGeneration",
      "version": "4.3.0"
    },
    "range": "4.3.0"
  },
  {
    "from": {
      "name": "System.Reflection.Emit",
      "version": "4.3.0"
    },
    "to": {
      "name": "System.Reflection.Primitives",
      "version": "4.3.0"
    },
    "range": "4.3.0"
  },
  {
    "from": {
      "name": "System.Reflection.Emit",
      "version": "4.3.0"
    },
    "to": {
      "name": "System.Runtime",
      "version": "4.3.0"
    },
    "range": "4.3.0"
  },
  {
    "from": {
      "name": "System.Reflection.TypeExtensions",
      "version": "4.3.0"
    },
    "to": {
      "name": "System.Reflection",
      "version": "4.3.0"
    },
    "range": "4.3.0"
  },
  {
    "from": {
      "name": "System.Reflection.TypeExtensions",
      "version": "4.3.0"
    },
    "to": {
      "name": "System.Runtime",
      "version": "4.3.0"
    },
    "range": "4.3.0"
  },
  {
    "to": {
      "name": "jive",
      "version": "0.1.0"
    },
    "range": "[0.1.0, )"
  },
  {
    "from": {
      "name": "System.Configuration.ConfigurationManager",
      "version": "4.4.1"
    },
    "to": {
      "name": "System.Security.Cryptography.ProtectedData",
      "version": "4.4.0"
    },
    "range": "4.4.0"
  },
  {
    "from": {
      "name": "System.Globalization.Calendars",
      "version": "4.3.0"
    },
    "to": {
      "name": "Microsoft.NETCore.Platforms",
      "version": "1.1.0"
    },
    "range": "1.1.0"
  },
  {
    "from": {
      "name": "System.Globalization.Calendars",
      "version": "4.3.0"
    },
    "to": {
      "name": "Microsoft.NETCore.Targets",
      "version": "1.1.0"
    },
    "range": "1.1.0"
  },
  {
    "from": {
      "name": "System.Globalization.Calendars",
      "version": "4.3.0"
    },
    "to": {
      "name": "System.Globalization",
      "version": "4.3.0"
    },
    "range": "4.3.0"
  },
  {
    "from": {
      "name": "System.Globalization.Calendars",
      "version": "4.3.0"
    },
    "to": {
      "name": "System.Runtime",
      "version": "4.3.0"
    },
    "range": "4.3.0"
  },
  {
    "from": {
      "name": "System.IO.Compression.ZipFile",
      "version": "4.3.0"
    },
    "to": {
      "name": "System.Buffers",
      "version": "4.3.0"
    },
    "range": "4.3.0"
  },
  {
    "from": {
      "name": "System.IO.Compression.ZipFile",
      "version": "4.3.0"
    },
    "to": {
      "name": "System.IO",
      "version": "4.3.0"
    },
    "range": "4.3.0"
  },
  {
    "from": {
      "name": "System.IO.Compression.ZipFile",
      "version": "4.3.0"
    },
    "to": {
      "name": "System.IO.Compression",
      "version": "4.3.0"
    },
    "range": "4.3.0"
  },
  {
    "from": {
      "name": "System.IO.Compression.ZipFile",
      "version": "4.3.0"
    },
    "to": {
      "name": "System.IO.FileSystem",
      "version": "4.3.0"
    },
    "range": "4.3.0"
  },
  {
    "from": {
      "name": "System.IO.Compression.ZipFile",
      "version": "4.3.0"
    },
    "to": {
      "name": "System.IO.FileSystem.Primitives",
      "version": "4.3.0"
    },
    "range": "4.3.0"
  },
  {
    "from": {
      "name": "System.IO.Compression.ZipFile",
      "version": "4.3.0"
    },
    "to": {
      "name": "System.Resources.ResourceManager",
      "version": "4.3.0"
    },
    "range": "4.3.0"
  },
  {
    "from": {
      "name": "System.IO.Compression.ZipFile",
      "version": "4.3.0"
    },
    "to": {
      "name": "System.Runtime",
      "version": "4.3.0"
    },
    "range": "4.3.0"
  },
  {
    "from": {
      "name": "System.IO.Compression.ZipFile",
      "version": "4.3.0"
    },
    "to": {
      "name": "System.Runtime.Extensions",
      "version": "4.3.0"
    },
    "range": "4.3.0"
  },
  {
    "from": {
      "name": "System.IO.Compression.ZipFile",
      "version": "4.3.0"
    },
    "to": {
      "name": "System.Text.Encoding",
      "version": "4.3.0"
    },
    "range": "4.3.0"
  },
  {
    "from": {
      "name": "System.IO.FileSystem.Primitives",
      "version": "4.3.0"
    },
    "to": {
      "name": "System.Runtime",
      "version": "4.3.0"
    },
    "range": "4.3.0"
  },
  {
    "from": {
      "name": "System.Linq",
      "version": "4.3.0"
    },
    "to": {
      "name": "System.Collections",
      "version": "4.3.0"
    },
    "range": "4.3.0"
  },
  {
    "from": {
      "name": "System.Linq",
      "version": "4.3.0"
    },
    "to": {
      "name": "System.Diagnostics.Debug",
      "version": "4.3.0"
    },
    "range": "4.3.0"
  },
  {
    "from": {
      "name": "System.Linq",
      "version": "4.3.0"
    },
    "to": {
      "name": "System.Resources.ResourceManager",
      "version": "4.3.0"
    },
    "range": "4.3.0"
  },
  {
    "from": {
      "name": "System.Linq",
      "version": "4.3.0"
    },
    "to": {
      "name": "System.Runtime",
      "version": "4.3.0"
    },
    "range": "4.3.0"
  },
  {
    "from": {
      "name": "System.Linq",
      "version": "4.3.0"
    },
    "to": {
      "name": "System.Runtime.Extensions",
      "version": "4.3.0"
    },
    "range": "4.3.0"
  },
  {
    "from": {
      "name": "System.Linq.Expressions",
      "version": "4.3.0"
    },
    "to": {
      "name": "System.Reflection.Emit.ILGeneration",
      "version": "4.3.0"
    },
    "range": "4.3.0"
  },
  {
    "from": {
      "name": "System.Linq.Expressions",
      "version": "4.3.0"
    },
    "to": {
      "name": "System.Reflection.Emit.Lightweight",
      "version": "4.3.0"
    },
    "range": "4.3.0"
  },
  {
    "from": {
      "name": "System.Linq.Expressions",
      "version": "4.3.0"
    },
    "to": {
      "name": "System.Reflection.Extensions",
      "version": "4.3.0"
    },
    "range": "4.3.0"
  },
  {
    "from": {
      "name": "System.Linq.Expressions",
      "version": "4.3.0"
    },
    "to": {
      "name": "System.Reflection.Primitives",
      "version": "4.3.0"
    },
    "range": "4.3.0"
  },
  {
    "from": {
      "name": "System.Linq.Expressions",
      "version": "4.3.0"
    },
    "to": {
      "name": "System.Reflection.TypeExtensions",
      "version": "4.3.0"
    },
    "range": "4.3.0"
  },
  {
    "from": {
      "name": "System.Linq.Expressions",
      "version": "4.3.0"
    },
    "to": {
      "name": "System.Resources.ResourceManager",
      "version": "4.3.0"
    },
    "range": "4.3.0"
  },
  {
    "from": {
      "name": "System.Linq.Expressions",
      "version": "4.3.0"
    },
    "to": {
      "name": "System.Runtime",
      "version": "4.3.0"
    },
    "range": "4.3.0"
  },
  {
    "from": {
      "name": "System.Linq.Expressions",
      "version": "4.3.0"
    },
    "to": {
      "name": "System.Runtime.Extensions",
      "version": "4.3.0"
    },
    "range": "4.3.0"
  },
  {
    "from": {
      "name": "System.Linq.Expressions",
      "version": "4.3.0"
    },
    "to": {
      "name": "System.Threading",
      "version": "4.3.0"
    },
    "range": "4.3.0"
  },
  {
    "from": {
      "name": "System.Linq.Queryable",
      "version": "4.0.1"
    },
    "to": {
      "name": "System.Collections",
      "version": "4.3.0"
    },
    "range": "4.0.11"
  },
  {
    "from": {
      "name": "System.Linq.Queryable",
      "version": "4.0.1"
    },
    "to": {
      "name": "System.Diagnostics.Debug",
      "version": "4.3.0"
    },
    "range": "4.0.11"
  },
  {
    "from": {
      "name": "System.Linq.Queryable",
      "version": "4.0.1"
    },
    "to": {
      "name": "System.Linq",
      "version": "4.3.0"
    },
    "range": "4.1.0"
  },
  {
    "from": {
      "name": "System.Linq.Queryable",
      "version": "4.0.1"
    },
    "to": {
      "name": "System.Linq.Expressions",
      "version": "4.3.0"
    },
    "range": "4.1.0"
  },
  {
    "from": {
      "name": "System.Linq.Queryable",
      "version": "4.0.1"
    },
    "to": {
      "name": "System.Reflection",
      "version": "4.3.0"
    },
    "range": "4.1.0"
  },
  {
    "from": {
      "name": "System.Linq.Queryable",
      "version": "4.0.1"
    },
    "to": {
      "name": "System.Reflection.Extensions",
      "version": "4.3.0"
    },
    "range": "4.0.1"
  },
  {
    "from": {
      "name": "System.Linq.Queryable",
      "version": "4.0.1"
    },
    "to": {
      "name": "System.Resources.ResourceManager",
      "version": "4.3.0"
    },
    "range": "4.0.1"
  },
  {
    "from": {
      "name": "System.Linq.Queryable",
      "version": "4.0.1"
    },
    "to": {
      "name": "System.Runtime",
      "version": "4.3.0"
    },
    "range": "4.1.0"
  },
  {
    "from": {
      "name": "System.Net.Http",
      "version": "4.3.0"
    },
    "to": {
      "name": "Microsoft.NETCore.Platforms",
      "version": "1.1.0"
    },
    "range": "1.1.0"
  },
  {
    "from": {
      "name": "System.Net.Http",
      "version": "4.3.0"
    },
    "to": {
      "name": "System.Collections",
      "version": "4.3.0"
    },
    "range": "4.3.0"
  },
  {
    "from": {
      "name": "System.Net.Http",
      "version": "4.3.0"
    },
    "to": {
      "name": "System.Diagnostics.Debug",
      "version": "4.3.0"
    },
    "range": "4.3.0"
  },
  {
    "from": {
      "name": "System.Net.Http",
      "version": "4.3.0"
    },
    "to": {
      "name": "System.Diagnostics.DiagnosticSource",
      "version": "4.3.0"
    },
    "range": "4.3.0"
  },
  {
    "from": {
      "name": "System.Net.Http",
      "version": "4.3.0"
    },
    "to": {
      "name": "System.Diagnostics.Tracing",
      "version": "4.3.0"
    },
    "range": "4.3.0"
  },
  {
    "from": {
      "name": "System.Net.Http",
      "version": "4.3.0"
    },
    "to": {
      "name": "System.Globalization",
      "version": "4.3.0"
    },
    "range": "4.3.0"
  },
  {
    "from": {
      "name": "System.Net.Http",
      "version": "4.3.0"
    },
    "to": {
      "name": "System.Globalization.Extensions",
      "version": "4.3.0"
    },
    "range": "4.3.0"
  },
  {
    "from": {
      "name": "System.Net.Http",
      "version": "4.3.0"
    },
    "to": {
      "name": "System.IO",
      "version": "4.3.0"
    },
    "range": "4.3.0"
  },
  {
    "from": {
      "name": "System.Net.Http",
      "version": "4.3.0"
    },
    "to": {
      "name": "System.IO.FileSystem",
      "version": "4.3.0"
    },
    "range": "4.3.0"
  },
  {
    "from": {
      "name": "System.Net.Http",
      "version": "4.3.0"
    },
    "to": {
      "name": "System.Net.Primitives",
      "version": "4.3.0"
    },
    "range": "4.3.0"
  },
  {
    "from": {
      "name": "System.Net.Http",
      "version": "4.3.0"
    },
    "to": {
      "name": "System.Resources.ResourceManager",
      "version": "4.3.0"
    },
    "range": "4.3.0"
  },
  {
    "from": {
      "name": "System.Net.Http",
      "version": "4.3.0"
    },
    "to": {
      "name": "System.Runtime",
      "version": "4.3.0"
    },
    "range": "4.3.0"
  },
  {
    "from": {
      "name": "System.Net.Http",
      "version": "4.3.0"
    },
    "to": {
      "name": "System.Runtime.Extensions",
      "version": "4.3.0"
    },
    "range": "4.3.0"
  },
  {
    "from": {
      "name": "System.Net.Http",
      "version": "4.3.0"
    },
    "to": {
      "name": "System.Runtime.Handles",
      "version": "4.3.0"
    },
    "range": "4.3.0"
  },
  {
    "from": {
      "name": "System.Net.Http",
      "version": "4.3.0"
    },
    "to": {
      "name": "System.Runtime.InteropServices",
      "version": "4.3.0"
    },
    "range": "4.3.0"
  },
  {
    "from": {
      "name": "System.Net.Http",
      "version": "4.3.0"
    },
    "to": {
      "name": "System.Security.Cryptography.Algorithms",
      "version": "4.3.0"
    },
    "range": "4.3.0"
  },
  {
    "from": {
      "name": "System.Net.Http",
      "version": "4.3.0"
    },
    "to": {
      "name": "System.Security.Cryptography.Encoding",
      "version": "4.3.0"
    },
    "range": "4.3.0"
  },
  {
    "from": {
      "name": "System.Net.Http",
      "version": "4.3.0"
    },
    "to": {
      "name": "System.Security.Cryptography.OpenSsl",
      "version": "4.3.0"
    },
    "range": "4.3.0"
  },
  {
    "from": {
      "name": "System.Net.Http",
      "version": "4.3.0"
    },
    "to": {
      "name": "System.Security.Cryptography.Primitives",
      "version": "4.3.0"
    },
    "range": "4.3.0"
  },
  {
    "from": {
      "name": "System.Net.Http",
      "version": "4.3.0"
    },
    "to": {
      "name": "System.Security.Cryptography.X509Certificates",
      "version": "4.3.0"
    },
    "range": "4.3.0"
  },
  {
    "from": {
      "name": "System.Net.Http",
      "version": "4.3.0"
    },
    "to": {
      "name": "System.Text.Encoding",
      "version": "4.3.0"
    },
    "range": "4.3.0"
  },
  {
    "from": {
      "name": "System.Net.Http",
      "version": "4.3.0"
    },
    "to": {
      "name": "System.Threading",
      "version": "4.3.0"
    },
    "range": "4.3.0"
  },
  {
    "from": {
      "name": "System.Net.Http",
      "version": "4.3.0"
    },
    "to": {
      "name": "System.Threading.Tasks",
      "version": "4.3.0"
    },
    "range": "4.3.0"
  },
  {
    "from": {
      "name": "System.Net.Http",
      "version": "4.3.0"
    },
    "to": {
      "name": "runtime.native.System",
      "version": "4.3.0"
    },
    "range": "4.3.0"
  },
  {
    "from": {
      "name": "System.Net.Http",
      "version": "4.3.0"
    },
    "to": {
      "name": "runtime.native.System.Net.Http",
      "version": "4.3.0"
    },
    "range": "4.3.0"
  },
  {
    "from": {
      "name": "System.Net.Http",
      "version": "4.3.0"
    },
    "to": {
      "name": "runtime.native.System.Security.Cryptography.OpenSsl",
      "version": "4.3.0"
    },
    "range": "4.3.0"
  },
  {
    "from": {
      "name": "System.Net.Primitives",
      "version": "4.3.0"
    },
    "to": {
      "name": "Microsoft.NETCore.Platforms",
      "version": "1.1.0"
    },
    "range": "1.1.0"
  },
  {
    "from": {
      "name": "System.Net.Primitives",
      "version": "4.3.0"
    },
    "to": {
      "name": "Microsoft.NETCore.Targets",
      "version": "1.1.0"
    },
    "range": "1.1.0"
  },
  {
    "from": {
      "name": "System.Net.Primitives",
      "version": "4.3.0"
    },
    "to": {
      "name": "System.Runtime",
      "version": "4.3.0"
    },
    "range": "4.3.0"
  },
  {
    "from": {
      "name": "System.Net.Primitives",
      "version": "4.3.0"
    },
    "to": {
      "name": "System.Runtime.Handles",
      "version": "4.3.0"
    },
    "range": "4.3.0"
  },
  {
    "from": {
      "name": "System.Net.Sockets",
      "version": "4.3.0"
    },
    "to": {
      "name": "Microsoft.NETCore.Platforms",
      "version": "1.1.0"
    },
    "range": "1.1.0"
  },
  {
    "from": {
      "name": "System.Net.Sockets",
      "version": "4.3.0"
    },
    "to": {
      "name": "Microsoft.NETCore.Targets",
      "version": "1.1.0"
    },
    "range": "1.1.0"
  },
  {
    "from": {
      "name": "System.Net.Sockets",
      "version": "4.3.0"
    },
    "to": {
      "name": "System.IO",
      "version": "4.3.0"
    },
    "range": "4.3.0"
  },
  {
    "from": {
      "name": "System.Net.Sockets",
      "version": "4.3.0"
    },
    "to": {
      "name": "System.Net.Primitives",
      "version": "4.3.0"
    },
    "range": "4.3.0"
  },
  {
    "from": {
      "name": "System.Net.Sockets",
      "version": "4.3.0"
    },
    "to": {
      "name": "System.Runtime",
      "version": "4.3.0"
    },
    "range": "4.3.0"
  },
  {
    "from": {
      "name": "System.Net.Sockets",
      "version": "4.3.0"
    },
    "to": {
      "name": "System.Threading.Tasks",
      "version": "4.3.0"
    },
    "range": "4.3.0"
  },
  {
    "from": {
      "name": "System.ObjectModel",
      "version": "4.3.0"
    },
    "to": {
      "name": "System.Collections",
      "version": "4.3.0"
    },
    "range": "4.3.0"
  },
  {
    "from": {
      "name": "System.ObjectModel",
      "version": "4.3.0"
    },
    "to": {
      "name": "System.Diagnostics.Debug",
      "version": "4.3.0"
    },
    "range": "4.3.0"
  },
  {
    "from": {
      "name": "System.ObjectModel",
      "version": "4.3.0"
    },
    "to": {
      "name": "System.Resources.ResourceManager",
      "version": "4.3.0"
    },
    "range": "4.3.0"
  },
  {
    "from": {
      "name": "System.ObjectModel",
      "version": "4.3.0"
    },
    "to": {
      "name": "System.Runtime",
      "version": "4.3.0"
    },
    "range": "4.3.0"
  },
  {
    "from": {
      "name": "System.ObjectModel",
      "version": "4.3.0"
    },
    "to": {
      "name": "System.Threading",
      "version": "4.3.0"
    },
    "range": "4.3.0"
  },
  {
    "from": {
      "name": "System.Reflection",
      "version": "4.3.0"
    },
    "to": {
      "name": "Microsoft.NETCore.Platforms",
      "version": "1.1.0"
    },
    "range": "1.1.0"
  },
  {
    "from": {
      "name": "System.Reflection",
      "version": "4.3.0"
    },
    "to": {
      "name": "Microsoft.NETCore.Targets",
      "version": "1.1.0"
    },
    "range": "1.1.0"
  },
  {
    "from": {
      "name": "System.Reflection",
      "version": "4.3.0"
    },
    "to": {
      "name": "System.IO",
      "version": "4.3.0"
    },
    "range": "4.3.0"
  },
  {
    "from": {
      "name": "System.Reflection",
      "version": "4.3.0"
    },
    "to": {
      "name": "System.Reflection.Primitives",
      "version": "4.3.0"
    },
    "range": "4.3.0"
  },
  {
    "from": {
      "name": "System.Reflection",
      "version": "4.3.0"
    },
    "to": {
      "name": "System.Runtime",
      "version": "4.3.0"
    },
    "range": "4.3.0"
  },
  {
    "from": {
      "name": "System.Reflection.Emit.ILGeneration",
      "version": "4.3.0"
    },
    "to": {
      "name": "System.Reflection",
      "version": "4.3.0"
    },
    "range": "4.3.0"
  },
  {
    "from": {
      "name": "System.Reflection.Emit.ILGeneration",
      "version": "4.3.0"
    },
    "to": {
      "name": "System.Reflection.Primitives",
      "version": "4.3.0"
    },
    "range": "4.3.0"
  },
  {
    "from": {
      "name": "System.Reflection.Emit.ILGeneration",
      "version": "4.3.0"
    },
    "to": {
      "name": "System.Runtime",
      "version": "4.3.0"
    },
    "range": "4.3.0"
  },
  {
    "from": {
      "name": "System.Reflection.Emit.Lightweight",
      "version": "4.3.0"
    },
    "to": {
      "name": "System.Reflection",
      "version": "4.3.0"
    },
    "range": "4.3.0"
  },
  {
    "from": {
      "name": "System.Reflection.Emit.Lightweight",
      "version": "4.3.0"
    },
    "to": {
      "name": "System.Reflection.Emit.ILGeneration",
      "version": "4.3.0"
    },
    "range": "4.3.0"
  },
  {
    "from": {
      "name": "System.Reflection.Emit.Lightweight",
      "version": "4.3.0"
    },
    "to": {
      "name": "System.Reflection.Primitives",
      "version": "4.3.0"
    },
    "range": "4.3.0"
  },
  {
    "from": {
      "name": "System.Reflection.Emit.Lightweight",
      "version": "4.3.0"
    },
    "to": {
      "name": "System.Runtime",
      "version": "4.3.0"
    },
    "range": "4.3.0"
  },
  {
    "from": {
      "name": "System.Reflection.Extensions",
      "version": "4.3.0"
    },
    "to": {
      "name": "Microsoft.NETCore.Platforms",
      "version": "1.1.0"
    },
    "range": "1.1.0"
  },
  {
    "from": {
      "name": "System.Reflection.Extensions",
      "version": "4.3.0"
    },
    "to": {
      "name": "Microsoft.NETCore.Targets",
      "version": "1.1.0"
    },
    "range": "1.1.0"
  },
  {
    "from": {
      "name": "System.Reflection.Extensions",
      "version": "4.3.0"
    },
    "to": {
      "name": "System.Reflection",
      "version": "4.3.0"
    },
    "range": "4.3.0"
  },
  {
    "from": {
      "name": "System.Reflection.Extensions",
      "version": "4.3.0"
    },
    "to": {
      "name": "System.Runtime",
      "version": "4.3.0"
    },
    "range": "4.3.0"
  },
  {
    "from": {
      "name": "System.Reflection.Primitives",
      "version": "4.3.0"
    },
    "to": {
      "name": "Microsoft.NETCore.Platforms",
      "version": "1.1.0"
    },
    "range": "1.1.0"
  },
  {
    "from": {
      "name": "System.Reflection.Primitives",
      "version": "4.3.0"
    },
    "to": {
      "name": "Microsoft.NETCore.Targets",
      "version": "1.1.0"
    },
    "range": "1.1.0"
  },
  {
    "from": {
      "name": "System.Reflection.Primitives",
      "version": "4.3.0"
    },
    "to": {
      "name": "System.Runtime",
      "version": "4.3.0"
    },
    "range": "4.3.0"
  },
  {
    "from": {
      "name": "System.Resources.ResourceManager",
      "version": "4.3.0"
    },
    "to": {
      "name": "Microsoft.NETCore.Platforms",
      "version": "1.1.0"
    },
    "range": "1.1.0"
  },
  {
    "from": {
      "name": "System.Resources.ResourceManager",
      "version": "4.3.0"
    },
    "to": {
      "name": "Microsoft.NETCore.Targets",
      "version": "1.1.0"
    },
    "range": "1.1.0"
  },
  {
    "from": {
      "name": "System.Resources.ResourceManager",
      "version": "4.3.0"
    },
    "to": {
      "name": "System.Globalization",
      "version": "4.3.0"
    },
    "range": "4.3.0"
  },
  {
    "from": {
      "name": "System.Resources.ResourceManager",
      "version": "4.3.0"
    },
    "to": {
      "name": "System.Reflection",
      "version": "4.3.0"
    },
    "range": "4.3.0"
  },
  {
    "from": {
      "name": "System.Resources.ResourceManager",
      "version": "4.3.0"
    },
    "to": {
      "name": "System.Runtime",
      "version": "4.3.0"
    },
    "range": "4.3.0"
  },
  {
    "from": {
      "name": "System.Runtime",
      "version": "4.3.0"
    },
    "to": {
      "name": "Microsoft.NETCore.Platforms",
      "version": "1.1.0"
    },
    "range": "1.1.0"
  },
  {
    "from": {
      "name": "System.Runtime",
      "version": "4.3.0"
    },
    "to": {
      "name": "Microsoft.NETCore.Targets",
      "version": "1.1.0"
    },
    "range": "1.1.0"
  },
  {
    "from": {
      "name": "System.Runtime.Extensions",
      "version": "4.3.0"
    },
    "to": {
      "name": "Microsoft.NETCore.Platforms",
      "version": "1.1.0"
    },
    "range": "1.1.0"
  },
  {
    "from": {
      "name": "System.Runtime.Extensions",
      "version": "4.3.0"
    },
    "to": {
      "name": "Microsoft.NETCore.Targets",
      "version": "1.1.0"
    },
    "range": "1.1.0"
  },
  {
    "from": {
      "name": "System.Runtime.Extensions",
      "version": "4.3.0"
    },
    "to": {
      "name": "System.Runtime",
      "version": "4.3.0"
    },
    "range": "4.3.0"
  },
  {
    "from": {
      "name": "System.Runtime.Handles",
      "version": "4.3.0"
    },
    "to": {
      "name": "Microsoft.NETCore.Platforms",
      "version": "1.1.0"
    },
    "range": "1.1.0"
  },
  {
    "from": {
      "name": "System.Runtime.Handles",
      "version": "4.3.0"
    },
    "to": {
      "name": "Microsoft.NETCore.Targets",
      "version": "1.1.0"
    },
    "range": "1.1.0"
  },
  {
    "from": {
      "name": "System.Runtime.Handles",
      "version": "4.3.0"
    },
    "to": {
      "name": "System.Runtime",
      "version": "4.3.0"
    },
    "range": "4.3.0"
  },
  {
    "from": {
      "name": "System.Runtime.InteropServices",
      "version": "4.3.0"
    },
    "to": {
      "name": "Microsoft.NETCore.Platforms",
      "version": "1.1.0"
    },
    "range": "1.1.0"
  },
  {
    "from": {
      "name": "System.Runtime.InteropServices",
      "version": "4.3.0"
    },
    "to": {
      "name": "Microsoft.NETCore.Targets",
      "version": "1.1.0"
    },
    "range": "1.1.0"
  },
  {
    "from": {
      "name": "System.Runtime.InteropServices",
      "version": "4.3.0"
    },
    "to": {
      "name": "System.Reflection",
      "version": "4.3.0"
    },
    "range": "4.3.0"
  },
  {
    "from": {
      "name": "System.Runtime.InteropServices",
      "version": "4.3.0"
    },
    "to": {
      "name": "System.Reflection.Primitives",
      "version": "4.3.0"
    },
    "range": "4.3.0"
  },
  {
    "from": {
      "name": "System.Runtime.InteropServices",
      "version": "4.3.0"
    },
    "to": {
      "name": "System.Runtime",
      "version": "4.3.0"
    },
    "range": "4.3.0"
  },
  {
    "from": {
      "name": "System.Runtime.InteropServices",
      "version": "4.3.0"
    },
    "to": {
      "name": "System.Runtime.Handles",
      "version": "4.3.0"
    },
    "range": "4.3.0"
  },
  {
    "from": {
      "name": "System.Runtime.InteropServices.RuntimeInformation",
      "version": "4.3.0"
    },
    "to": {
      "name": "System.Reflection",
      "version": "4.3.0"
    },
    "range": "4.3.0"
  },
  {
    "from": {
      "name": "System.Runtime.InteropServices.RuntimeInformation",
      "version": "4.3.0"
    },
    "to": {
      "name": "System.Reflection.Extensions",
      "version": "4.3.0"
    },
    "range": "4.3.0"
  },
  {
    "from": {
      "name": "System.Runtime.InteropServices.RuntimeInformation",
      "version": "4.3.0"
    },
    "to": {
      "name": "System.Resources.ResourceManager",
      "version": "4.3.0"
    },
    "range": "4.3.0"
  },
  {
    "from": {
      "name": "System.Runtime.InteropServices.RuntimeInformation",
      "version": "4.3.0"
    },
    "to": {
      "name": "System.Runtime",
      "version": "4.3.0"
    },
    "range": "4.3.0"
  },
  {
    "from": {
      "name": "System.Runtime.InteropServices.RuntimeInformation",
      "version": "4.3.0"
    },
    "to": {
      "name": "System.Runtime.InteropServices",
      "version": "4.3.0"
    },
    "range": "4.3.0"
  },
  {
    "from": {
      "name": "System.Runtime.InteropServices.RuntimeInformation",
      "version": "4.3.0"
    },
    "to": {
      "name": "System.Threading",
      "version": "4.3.0"
    },
    "range": "4.3.0"
  },
  {
    "from": {
      "name": "System.Runtime.InteropServices.RuntimeInformation",
      "version": "4.3.0"
    },
    "to": {
      "name": "runtime.native.System",
      "version": "4.3.0"
    },
    "range": "4.3.0"
  },
  {
    "from": {
      "name": "System.Runtime.Numerics",
      "version": "4.3.0"
    },
    "to": {
      "name": "System.Globalization",
      "version": "4.3.0"
    },
    "range": "4.3.0"
  },
  {
    "from": {
      "name": "System.Runtime.Numerics",
      "version": "4.3.0"
    },
    "to": {
      "name": "System.Resources.ResourceManager",
      "version": "4.3.0"
    },
    "range": "4.3.0"
  },
  {
    "from": {
      "name": "System.Runtime.Numerics",
      "version": "4.3.0"
    },
    "to": {
      "name": "System.Runtime",
      "version": "4.3.0"
    },
    "range": "4.3.0"
  },
  {
    "from": {
      "name": "System.Runtime.Numerics",
      "version": "4.3.0"
    },
    "to": {
      "name": "System.Runtime.Extensions",
      "version": "4.3.0"
    },
    "range": "4.3.0"
  },
  {
    "from": {
      "name": "System.Runtime.Serialization.Formatters",
      "version": "4.3.0"
    },
    "to": {
      "name": "System.Collections",
      "version": "4.3.0"
    },
    "range": "4.3.0"
  },
  {
    "from": {
      "name": "System.Runtime.Serialization.Formatters",
      "version": "4.3.0"
    },
    "to": {
      "name": "System.Reflection",
      "version": "4.3.0"
    },
    "range": "4.3.0"
  },
  {
    "from": {
      "name": "System.Runtime.Serialization.Formatters",
      "version": "4.3.0"
    },
    "to": {
      "name": "System.Resources.ResourceManager",
      "version": "4.3.0"
    },
    "range": "4.3.0"
  },
  {
    "from": {
      "name": "System.Runtime.Serialization.Formatters",
      "version": "4.3.0"
    },
    "to": {
      "name": "System.Runtime",
      "version": "4.3.0"
    },
    "range": "4.3.0"
  },
  {
    "from": {
      "name": "System.Runtime.Serialization.Formatters",
      "version": "4.3.0"
    },
    "to": {
      "name": "System.Runtime.Serialization.Primitives",
      "version": "4.3.0"
    },
    "range": "4.3.0"
  },
  {
    "from": {
      "name": "System.Runtime.Serialization.Primitives",
      "version": "4.3.0"
    },
    "to": {
      "name": "System.Resources.ResourceManager",
      "version": "4.3.0"
    },
    "range": "4.3.0"
  },
  {
    "from": {
      "name": "System.Runtime.Serialization.Primitives",
      "version": "4.3.0"
    },
    "to": {
      "name": "System.Runtime",
      "version": "4.3.0"
    },
    "range": "4.3.0"
  },
  {
    "from": {
      "name": "System.Security.Cryptography.Algorithms",
      "version": "4.3.0"
    },
    "to": {
      "name": "Microsoft.NETCore.Platforms",
      "version": "1.1.0"
    },
    "range": "1.1.0"
  },
  {
    "from": {
      "name": "System.Security.Cryptography.Algorithms",
      "version": "4.3.0"
    },
    "to": {
      "name": "System.Collections",
      "version": "4.3.0"
    },
    "range": "4.3.0"
  },
  {
    "from": {
      "name": "System.Security.Cryptography.Algorithms",
      "version": "4.3.0"
    },
    "to": {
      "name": "System.IO",
      "version": "4.3.0"
    },
    "range": "4.3.0"
  },
  {
    "from": {
      "name": "System.Security.Cryptography.Algorithms",
      "version": "4.3.0"
    },
    "to": {
      "name": "System.Resources.ResourceManager",
      "version": "4.3.0"
    },
    "range": "4.3.0"
  },
  {
    "from": {
      "name": "System.Security.Cryptography.Algorithms",
      "version": "4.3.0"
    },
    "to": {
      "name": "System.Runtime",
      "version": "4.3.0"
    },
    "range": "4.3.0"
  },
  {
    "from": {
      "name": "System.Security.Cryptography.Algorithms",
      "version": "4.3.0"
    },
    "to": {
      "name": "System.Runtime.Extensions",
      "version": "4.3.0"
    },
    "range": "4.3.0"
  },
  {
    "from": {
      "name": "System.Security.Cryptography.Algorithms",
      "version": "4.3.0"
    },
    "to": {
      "name": "System.Runtime.Handles",
      "version": "4.3.0"
    },
    "range": "4.3.0"
  },
  {
    "from": {
      "name": "System.Security.Cryptography.Algorithms",
      "version": "4.3.0"
    },
    "to": {
      "name": "System.Runtime.InteropServices",
      "version": "4.3.0"
    },
    "range": "4.3.0"
  },
  {
    "from": {
      "name": "System.Security.Cryptography.Algorithms",
      "version": "4.3.0"
    },
    "to": {
      "name": "System.Runtime.Numerics",
      "version": "4.3.0"
    },
    "range": "4.3.0"
  },
  {
    "from": {
      "name": "System.Security.Cryptography.Algorithms",
      "version": "4.3.0"
    },
    "to": {
      "name": "System.Security.Cryptography.Encoding",
      "version": "4.3.0"
    },
    "range": "4.3.0"
  },
  {
    "from": {
      "name": "System.Security.Cryptography.Algorithms",
      "version": "4.3.0"
    },
    "to": {
      "name": "System.Security.Cryptography.Primitives",
      "version": "4.3.0"
    },
    "range": "4.3.0"
  },
  {
    "from": {
      "name": "System.Security.Cryptography.Algorithms",
      "version": "4.3.0"
    },
    "to": {
      "name": "System.Text.Encoding",
      "version": "4.3.0"
    },
    "range": "4.3.0"
  },
  {
    "from": {
      "name": "System.Security.Cryptography.Algorithms",
      "version": "4.3.0"
    },
    "to": {
      "name": "runtime.native.System.Security.Cryptography.Apple",
      "version": "4.3.0"
    },
    "range": "4.3.0"
  },
  {
    "from": {
      "name": "System.Security.Cryptography.Algorithms",
      "version": "4.3.0"
    },
    "to": {
      "name": "runtime.native.System.Security.Cryptography.OpenSsl",
      "version": "4.3.0"
    },
    "range": "4.3.0"
  },
  {
    "from": {
      "name": "System.Security.Cryptography.Cng",
      "version": "4.3.0"
    },
    "to": {
      "name": "Microsoft.NETCore.Platforms",
      "version": "1.1.0"
    },
    "range": "1.1.0"
  },
  {
    "from": {
      "name": "System.Security.Cryptography.Cng",
      "version": "4.3.0"
    },
    "to": {
      "name": "System.IO",
      "version": "4.3.0"
    },
    "range": "4.3.0"
  },
  {
    "from": {
      "name": "System.Security.Cryptography.Cng",
      "version": "4.3.0"
    },
    "to": {
      "name": "System.Resources.ResourceManager",
      "version": "4.3.0"
    },
    "range": "4.3.0"
  },
  {
    "from": {
      "name": "System.Security.Cryptography.Cng",
      "version": "4.3.0"
    },
    "to": {
      "name": "System.Runtime",
      "version": "4.3.0"
    },
    "range": "4.3.0"
  },
  {
    "from": {
      "name": "System.Security.Cryptography.Cng",
      "version": "4.3.0"
    },
    "to": {
      "name": "System.Runtime.Handles",
      "version": "4.3.0"
    },
    "range": "4.3.0"
  },
  {
    "from": {
      "name": "System.Security.Cryptography.Cng",
      "version": "4.3.0"
    },
    "to": {
      "name": "System.Runtime.InteropServices",
      "version": "4.3.0"
    },
    "range": "4.3.0"
  },
  {
    "from": {
      "name": "System.Security.Cryptography.Cng",
      "version": "4.3.0"
    },
    "to": {
      "name": "System.Security.Cryptography.Algorithms",
      "version": "4.3.0"
    },
    "range": "4.3.0"
  },
  {
    "from": {
      "name": "System.Security.Cryptography.Cng",
      "version": "4.3.0"
    },
    "to": {
      "name": "System.Security.Cryptography.Encoding",
      "version": "4.3.0"
    },
    "range": "4.3.0"
  },
  {
    "from": {
      "name": "System.Security.Cryptography.Cng",
      "version": "4.3.0"
    },
    "to": {
      "name": "System.Security.Cryptography.Primitives",
      "version": "4.3.0"
    },
    "range": "4.3.0"
  },
  {
    "from": {
      "name": "System.Security.Cryptography.Cng",
      "version": "4.3.0"
    },
    "to": {
      "name": "System.Text.Encoding",
      "version": "4.3.0"
    },
    "range": "4.3.0"
  },
  {
    "from": {
      "name": "System.Security.Cryptography.Csp",
      "version": "4.3.0"
    },
    "to": {
      "name": "Microsoft.NETCore.Platforms",
      "version": "1.1.0"
    },
    "range": "1.1.0"
  },
  {
    "from": {
      "name": "System.Security.Cryptography.Csp",
      "version": "4.3.0"
    },
    "to": {
      "name": "System.IO",
      "version": "4.3.0"
    },
    "range": "4.3.0"
  },
  {
    "from": {
      "name": "System.Security.Cryptography.Csp",
      "version": "4.3.0"
    },
    "to": {
      "name": "System.Runtime",
      "version": "4.3.0"
    },
    "range": "4.3.0"
  },
  {
    "from": {
      "name": "System.Security.Cryptography.Csp",
      "version": "4.3.0"
    },
    "to": {
      "name": "System.Runtime.Handles",
      "version": "4.3.0"
    },
    "range": "4.3.0"
  },
  {
    "from": {
      "name": "System.Security.Cryptography.Csp",
      "version": "4.3.0"
    },
    "to": {
      "name": "System.Runtime.InteropServices",
      "version": "4.3.0"
    },
    "range": "4.3.0"
  },
  {
    "from": {
      "name": "System.Threading.Tasks",
      "version": "4.3.0"
    },
    "to": {
      "name": "Microsoft.NETCore.Platforms",
      "version": "1.1.0"
    },
    "range": "1.1.0"
  },
  {
    "from": {
      "name": "System.Threading.Tasks",
      "version": "4.3.0"
    },
    "to": {
      "name": "Microsoft.NETCore.Targets",
      "version": "1.1.0"
    },
    "range": "1.1.0"
  },
  {
    "to": {
      "name": "NodaTime",
      "version": "2.4.7"
    },
    "range": "[2.4.7, )"
  },
  {
    "from": {
      "name": "System.Diagnostics.Debug",
      "version": "4.3.0"
    },
    "to": {
      "name": "Microsoft.NETCore.Platforms",
      "version": "1.1.0"
    },
    "range": "1.1.0"
  },
  {
    "from": {
      "name": "System.Diagnostics.Debug",
      "version": "4.3.0"
    },
    "to": {
      "name": "Microsoft.NETCore.Targets",
      "version": "1.1.0"
    },
    "range": "1.1.0"
  },
  {
    "from": {
      "name": "System.Diagnostics.Debug",
      "version": "4.3.0"
    },
    "to": {
      "name": "System.Runtime",
      "version": "4.3.0"
    },
    "range": "4.3.0"
  },
  {
    "from": {
      "name": "System.IO.FileSystem",
      "version": "4.3.0"
    },
    "to": {
      "name": "System.IO",
      "version": "4.3.0"
    },
    "range": "4.3.0"
  },
  {
    "from": {
      "name": "System.IO.FileSystem",
      "version": "4.3.0"
    },
    "to": {
      "name": "System.IO.FileSystem.Primitives",
      "version": "4.3.0"
    },
    "range": "4.3.0"
  },
  {
    "from": {
      "name": "System.IO.FileSystem",
      "version": "4.3.0"
    },
    "to": {
      "name": "System.Runtime",
      "version": "4.3.0"
    },
    "range": "4.3.0"
  },
  {
    "from": {
      "name": "System.IO.FileSystem",
      "version": "4.3.0"
    },
    "to": {
      "name": "System.Runtime.Handles",
      "version": "4.3.0"
    },
    "range": "4.3.0"
  },
  {
    "from": {
      "name": "System.Security.Cryptography.Cng",
      "version": "4.3.0"
    },
    "to": {
      "name": "System.Runtime.Extensions",
      "version": "4.3.0"
    },
    "range": "4.3.0"
  },
  {
    "from": {
      "name": "System.Security.Cryptography.Csp",
      "version": "4.3.0"
    },
    "to": {
      "name": "System.Reflection",
      "version": "4.3.0"
    },
    "range": "4.3.0"
  },
  {
    "from": {
      "name": "System.Security.Cryptography.Csp",
      "version": "4.3.0"
    },
    "to": {
      "name": "System.Resources.ResourceManager",
      "version": "4.3.0"
    },
    "range": "4.3.0"
  },
  {
    "from": {
      "name": "System.Security.Cryptography.Csp",
      "version": "4.3.0"
    },
    "to": {
      "name": "System.Runtime.Extensions",
      "version": "4.3.0"
    },
    "range": "4.3.0"
  },
  {
    "from": {
      "name": "System.Security.Cryptography.Csp",
      "version": "4.3.0"
    },
    "to": {
      "name": "System.Security.Cryptography.Algorithms",
      "version": "4.3.0"
    },
    "range": "4.3.0"
  },
  {
    "from": {
      "name": "System.Security.Cryptography.Csp",
      "version": "4.3.0"
    },
    "to": {
      "name": "System.Security.Cryptography.Encoding",
      "version": "4.3.0"
    },
    "range": "4.3.0"
  },
  {
    "from": {
      "name": "System.Security.Cryptography.Csp",
      "version": "4.3.0"
    },
    "to": {
      "name": "System.Security.Cryptography.Primitives",
      "version": "4.3.0"
    },
    "range": "4.3.0"
  },
  {
    "from": {
      "name": "System.Security.Cryptography.Csp",
      "version": "4.3.0"
    },
    "to": {
      "name": "System.Text.Encoding",
      "version": "4.3.0"
    },
    "range": "4.3.0"
  },
  {
    "from": {
      "name": "System.Security.Cryptography.Csp",
      "version": "4.3.0"
    },
    "to": {
      "name": "System.Threading",
      "version": "4.3.0"
    },
    "range": "4.3.0"
  },
  {
    "from": {
      "name": "System.Security.Cryptography.Encoding",
      "version": "4.3.0"
    },
    "to": {
      "name": "Microsoft.NETCore.Platforms",
      "version": "1.1.0"
    },
    "range": "1.1.0"
  },
  {
    "from": {
      "name": "System.Security.Cryptography.Encoding",
      "version": "4.3.0"
    },
    "to": {
      "name": "System.Collections",
      "version": "4.3.0"
    },
    "range": "4.3.0"
  },
  {
    "from": {
      "name": "System.Security.Cryptography.Encoding",
      "version": "4.3.0"
    },
    "to": {
      "name": "System.Collections.Concurrent",
      "version": "4.3.0"
    },
    "range": "4.3.0"
  },
  {
    "from": {
      "name": "System.Security.Cryptography.Encoding",
      "version": "4.3.0"
    },
    "to": {
      "name": "System.Linq",
      "version": "4.3.0"
    },
    "range": "4.3.0"
  },
  {
    "from": {
      "name": "System.Security.Cryptography.Encoding",
      "version": "4.3.0"
    },
    "to": {
      "name": "System.Resources.ResourceManager",
      "version": "4.3.0"
    },
    "range": "4.3.0"
  },
  {
    "from": {
      "name": "System.Security.Cryptography.Encoding",
      "version": "4.3.0"
    },
    "to": {
      "name": "System.Runtime",
      "version": "4.3.0"
    },
    "range": "4.3.0"
  },
  {
    "from": {
      "name": "System.Security.Cryptography.Encoding",
      "version": "4.3.0"
    },
    "to": {
      "name": "System.Runtime.Extensions",
      "version": "4.3.0"
    },
    "range": "4.3.0"
  },
  {
    "from": {
      "name": "System.Security.Cryptography.Encoding",
      "version": "4.3.0"
    },
    "to": {
      "name": "System.Runtime.Handles",
      "version": "4.3.0"
    },
    "range": "4.3.0"
  },
  {
    "from": {
      "name": "System.Security.Cryptography.Encoding",
      "version": "4.3.0"
    },
    "to": {
      "name": "System.Runtime.InteropServices",
      "version": "4.3.0"
    },
    "range": "4.3.0"
  },
  {
    "from": {
      "name": "System.Security.Cryptography.Encoding",
      "version": "4.3.0"
    },
    "to": {
      "name": "System.Security.Cryptography.Primitives",
      "version": "4.3.0"
    },
    "range": "4.3.0"
  },
  {
    "from": {
      "name": "System.Security.Cryptography.Encoding",
      "version": "4.3.0"
    },
    "to": {
      "name": "System.Text.Encoding",
      "version": "4.3.0"
    },
    "range": "4.3.0"
  },
  {
    "from": {
      "name": "System.Security.Cryptography.Encoding",
      "version": "4.3.0"
    },
    "to": {
      "name": "runtime.native.System.Security.Cryptography.OpenSsl",
      "version": "4.3.0"
    },
    "range": "4.3.0"
  },
  {
    "from": {
      "name": "System.Security.Cryptography.OpenSsl",
      "version": "4.3.0"
    },
    "to": {
      "name": "System.Collections",
      "version": "4.3.0"
    },
    "range": "4.3.0"
  },
  {
    "from": {
      "name": "System.Security.Cryptography.OpenSsl",
      "version": "4.3.0"
    },
    "to": {
      "name": "System.IO",
      "version": "4.3.0"
    },
    "range": "4.3.0"
  },
  {
    "from": {
      "name": "System.Security.Cryptography.OpenSsl",
      "version": "4.3.0"
    },
    "to": {
      "name": "System.Resources.ResourceManager",
      "version": "4.3.0"
    },
    "range": "4.3.0"
  },
  {
    "from": {
      "name": "System.Security.Cryptography.OpenSsl",
      "version": "4.3.0"
    },
    "to": {
      "name": "System.Runtime",
      "version": "4.3.0"
    },
    "range": "4.3.0"
  },
  {
    "from": {
      "name": "System.Security.Cryptography.OpenSsl",
      "version": "4.3.0"
    },
    "to": {
      "name": "System.Runtime.Extensions",
      "version": "4.3.0"
    },
    "range": "4.3.0"
  },
  {
    "from": {
      "name": "System.Security.Cryptography.OpenSsl",
      "version": "4.3.0"
    },
    "to": {
      "name": "System.Runtime.Handles",
      "version": "4.3.0"
    },
    "range": "4.3.0"
  },
  {
    "from": {
      "name": "System.Security.Cryptography.OpenSsl",
      "version": "4.3.0"
    },
    "to": {
      "name": "System.Runtime.InteropServices",
      "version": "4.3.0"
    },
    "range": "4.3.0"
  },
  {
    "from": {
      "name": "System.Security.Cryptography.OpenSsl",
      "version": "4.3.0"
    },
    "to": {
      "name": "System.Runtime.Numerics",
      "version": "4.3.0"
    },
    "range": "4.3.0"
  },
  {
    "from": {
      "name": "System.Security.Cryptography.OpenSsl",
      "version": "4.3.0"
    },
    "to": {
      "name": "System.Security.Cryptography.Algorithms",
      "version": "4.3.0"
    },
    "range": "4.3.0"
  },
  {
    "from": {
      "name": "System.Security.Cryptography.OpenSsl",
      "version": "4.3.0"
    },
    "to": {
      "name": "System.Security.Cryptography.Encoding",
      "version": "4.3.0"
    },
    "range": "4.3.0"
  },
  {
    "from": {
      "name": "System.Security.Cryptography.OpenSsl",
      "version": "4.3.0"
    },
    "to": {
      "name": "System.Security.Cryptography.Primitives",
      "version": "4.3.0"
    },
    "range": "4.3.0"
  },
  {
    "from": {
      "name": "System.Security.Cryptography.OpenSsl",
      "version": "4.3.0"
    },
    "to": {
      "name": "System.Text.Encoding",
      "version": "4.3.0"
    },
    "range": "4.3.0"
  },
  {
    "from": {
      "name": "System.Security.Cryptography.OpenSsl",
      "version": "4.3.0"
    },
    "to": {
      "name": "runtime.native.System.Security.Cryptography.OpenSsl",
      "version": "4.3.0"
    },
    "range": "4.3.0"
  },
  {
    "from": {
      "name": "System.Security.Cryptography.Primitives",
      "version": "4.3.0"
    },
    "to": {
      "name": "System.Diagnostics.Debug",
      "version": "4.3.0"
    },
    "range": "4.3.0"
  },
  {
    "from": {
      "name": "System.Security.Cryptography.Primitives",
      "version": "4.3.0"
    },
    "to": {
      "name": "System.Globalization",
      "version": "4.3.0"
    },
    "range": "4.3.0"
  },
  {
    "from": {
      "name": "System.Security.Cryptography.Primitives",
      "version": "4.3.0"
    },
    "to": {
      "name": "System.IO",
      "version": "4.3.0"
    },
    "range": "4.3.0"
  },
  {
    "from": {
      "name": "System.Security.Cryptography.Primitives",
      "version": "4.3.0"
    },
    "to": {
      "name": "System.Resources.ResourceManager",
      "version": "4.3.0"
    },
    "range": "4.3.0"
  },
  {
    "from": {
      "name": "System.Security.Cryptography.Primitives",
      "version": "4.3.0"
    },
    "to": {
      "name": "System.Runtime",
      "version": "4.3.0"
    },
    "range": "4.3.0"
  },
  {
    "from": {
      "name": "System.Security.Cryptography.Primitives",
      "version": "4.3.0"
    },
    "to": {
      "name": "System.Threading",
      "version": "4.3.0"
    },
    "range": "4.3.0"
  },
  {
    "from": {
      "name": "System.Security.Cryptography.Primitives",
      "version": "4.3.0"
    },
    "to": {
      "name": "System.Threading.Tasks",
      "version": "4.3.0"
    },
    "range": "4.3.0"
  },
  {
    "from": {
      "name": "System.Security.Cryptography.X509Certificates",
      "version": "4.3.0"
    },
    "to": {
      "name": "Microsoft.NETCore.Platforms",
      "version": "1.1.0"
    },
    "range": "1.1.0"
  },
  {
    "from": {
      "name": "System.Security.Cryptography.X509Certificates",
      "version": "4.3.0"
    },
    "to": {
      "name": "System.Collections",
      "version": "4.3.0"
    },
    "range": "4.3.0"
  },
  {
    "from": {
      "name": "System.Security.Cryptography.X509Certificates",
      "version": "4.3.0"
    },
    "to": {
      "name": "System.Diagnostics.Debug",
      "version": "4.3.0"
    },
    "range": "4.3.0"
  },
  {
    "from": {
      "name": "System.Security.Cryptography.X509Certificates",
      "version": "4.3.0"
    },
    "to": {
      "name": "System.Globalization",
      "version": "4.3.0"
    },
    "range": "4.3.0"
  },
  {
    "from": {
      "name": "System.Security.Cryptography.X509Certificates",
      "version": "4.3.0"
    },
    "to": {
      "name": "System.Globalization.Calendars",
      "version": "4.3.0"
    },
    "range": "4.3.0"
  },
  {
    "from": {
      "name": "System.Security.Cryptography.X509Certificates",
      "version": "4.3.0"
    },
    "to": {
      "name": "System.IO",
      "version": "4.3.0"
    },
    "range": "4.3.0"
  },
  {
    "from": {
      "name": "System.Security.Cryptography.X509Certificates",
      "version": "4.3.0"
    },
    "to": {
      "name": "System.IO.FileSystem",
      "version": "4.3.0"
    },
    "range": "4.3.0"
  },
  {
    "from": {
      "name": "System.Security.Cryptography.X509Certificates",
      "version": "4.3.0"
    },
    "to": {
      "name": "System.IO.FileSystem.Primitives",
      "version": "4.3.0"
    },
    "range": "4.3.0"
  },
  {
    "from": {
      "name": "System.Security.Cryptography.X509Certificates",
      "version": "4.3.0"
    },
    "to": {
      "name": "System.Resources.ResourceManager",
      "version": "4.3.0"
    },
    "range": "4.3.0"
  },
  {
    "from": {
      "name": "System.Security.Cryptography.X509Certificates",
      "version": "4.3.0"
    },
    "to": {
      "name": "System.Runtime",
      "version": "4.3.0"
    },
    "range": "4.3.0"
  },
  {
    "from": {
      "name": "System.Security.Cryptography.X509Certificates",
      "version": "4.3.0"
    },
    "to": {
      "name": "System.Runtime.Extensions",
      "version": "4.3.0"
    },
    "range": "4.3.0"
  },
  {
    "from": {
      "name": "System.Security.Cryptography.X509Certificates",
      "version": "4.3.0"
    },
    "to": {
      "name": "System.Runtime.Handles",
      "version": "4.3.0"
    },
    "range": "4.3.0"
  },
  {
    "from": {
      "name": "System.Security.Cryptography.X509Certificates",
      "version": "4.3.0"
    },
    "to": {
      "name": "System.Runtime.InteropServices",
      "version": "4.3.0"
    },
    "range": "4.3.0"
  },
  {
    "from": {
      "name": "System.Security.Cryptography.X509Certificates",
      "version": "4.3.0"
    },
    "to": {
      "name": "System.Runtime.Numerics",
      "version": "4.3.0"
    },
    "range": "4.3.0"
  },
  {
    "from": {
      "name": "System.Security.Cryptography.X509Certificates",
      "version": "4.3.0"
    },
    "to": {
      "name": "System.Security.Cryptography.Algorithms",
      "version": "4.3.0"
    },
    "range": "4.3.0"
  },
  {
    "from": {
      "name": "System.Security.Cryptography.X509Certificates",
      "version": "4.3.0"
    },
    "to": {
      "name": "System.Security.Cryptography.Cng",
      "version": "4.3.0"
    },
    "range": "4.3.0"
  },
  {
    "from": {
      "name": "System.Security.Cryptography.X509Certificates",
      "version": "4.3.0"
    },
    "to": {
      "name": "System.Security.Cryptography.Csp",
      "version": "4.3.0"
    },
    "range": "4.3.0"
  },
  {
    "from": {
      "name": "System.Security.Cryptography.X509Certificates",
      "version": "4.3.0"
    },
    "to": {
      "name": "System.Security.Cryptography.Encoding",
      "version": "4.3.0"
    },
    "range": "4.3.0"
  },
  {
    "from": {
      "name": "System.Security.Cryptography.X509Certificates",
      "version": "4.3.0"
    },
    "to": {
      "name": "System.Security.Cryptography.OpenSsl",
      "version": "4.3.0"
    },
    "range": "4.3.0"
  },
  {
    "from": {
      "name": "System.Security.Cryptography.X509Certificates",
      "version": "4.3.0"
    },
    "to": {
      "name": "System.Security.Cryptography.Primitives",
      "version": "4.3.0"
    },
    "range": "4.3.0"
  },
  {
    "from": {
      "name": "System.Security.Cryptography.X509Certificates",
      "version": "4.3.0"
    },
    "to": {
      "name": "System.Text.Encoding",
      "version": "4.3.0"
    },
    "range": "4.3.0"
  },
  {
    "from": {
      "name": "System.Security.Cryptography.X509Certificates",
      "version": "4.3.0"
    },
    "to": {
      "name": "System.Threading",
      "version": "4.3.0"
    },
    "range": "4.3.0"
  },
  {
    "from": {
      "name": "System.Security.Cryptography.X509Certificates",
      "version": "4.3.0"
    },
    "to": {
      "name": "runtime.native.System",
      "version": "4.3.0"
    },
    "range": "4.3.0"
  },
  {
    "from": {
      "name": "System.Security.Cryptography.X509Certificates",
      "version": "4.3.0"
    },
    "to": {
      "name": "runtime.native.System.Net.Http",
      "version": "4.3.0"
    },
    "range": "4.3.0"
  },
  {
    "from": {
      "name": "System.Security.Cryptography.X509Certificates",
      "version": "4.3.0"
    },
    "to": {
      "name": "runtime.native.System.Security.Cryptography.OpenSsl",
      "version": "4.3.0"
    },
    "range": "4.3.0"
  },
  {
    "from": {
      "name": "System.Text.Encoding",
      "version": "4.3.0"
    },
    "to": {
      "name": "Microsoft.NETCore.Platforms",
      "version": "1.1.0"
    },
    "range": "1.1.0"
  },
  {
    "from": {
      "name": "System.Text.Encoding",
      "version": "4.3.0"
    },
    "to": {
      "name": "Microsoft.NETCore.Targets",
      "version": "1.1.0"
    },
    "range": "1.1.0"
  },
  {
    "from": {
      "name": "System.Text.Encoding",
      "version": "4.3.0"
    },
    "to": {
      "name": "System.Runtime",
      "version": "4.3.0"
    },
    "range": "4.3.0"
  },
  {
    "from": {
      "name": "System.Text.Encoding.Extensions",
      "version": "4.3.0"
    },
    "to": {
      "name": "Microsoft.NETCore.Platforms",
      "version": "1.1.0"
    },
    "range": "1.1.0"
  },
  {
    "from": {
      "name": "System.Text.Encoding.Extensions",
      "version": "4.3.0"
    },
    "to": {
      "name": "Microsoft.NETCore.Targets",
      "version": "1.1.0"
    },
    "range": "1.1.0"
  },
  {
    "from": {
      "name": "System.Text.Encoding.Extensions",
      "version": "4.3.0"
    },
    "to": {
      "name": "System.Runtime",
      "version": "4.3.0"
    },
    "range": "4.3.0"
  },
  {
    "from": {
      "name": "System.Text.Encoding.Extensions",
      "version": "4.3.0"
    },
    "to": {
      "name": "System.Text.Encoding",
      "version": "4.3.0"
    },
    "range": "4.3.0"
  },
  {
    "from": {
      "name": "System.Text.RegularExpressions",
      "version": "4.3.0"
    },
    "to": {
      "name": "System.Runtime",
      "version": "4.3.0"
    },
    "range": "4.3.0"
  },
  {
    "from": {
      "name": "System.Threading",
      "version": "4.3.0"
    },
    "to": {
      "name": "System.Runtime",
      "version": "4.3.0"
    },
    "range": "4.3.0"
  },
  {
    "from": {
      "name": "System.Threading",
      "version": "4.3.0"
    },
    "to": {
      "name": "System.Threading.Tasks",
      "version": "4.3.0"
    },
    "range": "4.3.0"
  },
  {
    "from": {
      "name": "System.Threading.Tasks",
      "version": "4.3.0"
    },
    "to": {
      "name": "System.Runtime",
      "version": "4.3.0"
    },
    "range": "4.3.0"
  },
  {
    "from": {
      "name": "System.Threading.Tasks.Extensions",
      "version": "4.3.0"
    },
    "to": {
      "name": "System.Collections",
      "version": "4.3.0"
    },
    "range": "4.3.0"
  },
  {
    "from": {
      "name": "System.Threading.Tasks.Extensions",
      "version": "4.3.0"
    },
    "to": {
      "name": "System.Runtime",
      "version": "4.3.0"
    },
    "range": "4.3.0"
  },
  {
    "from": {
      "name": "System.Threading.Tasks.Extensions",
      "version": "4.3.0"
    },
    "to": {
      "name": "System.Threading.Tasks",
      "version": "4.3.0"
    },
    "range": "4.3.0"
  },
  {
    "from": {
      "name": "System.Threading.Timer",
      "version": "4.3.0"
    },
    "to": {
      "name": "Microsoft.NETCore.Platforms",
      "version": "1.1.0"
    },
    "range": "1.1.0"
  },
  {
    "from": {
      "name": "System.Threading.Timer",
      "version": "4.3.0"
    },
    "to": {
      "name": "Microsoft.NETCore.Targets",
      "version": "1.1.0"
    },
    "range": "1.1.0"
  },
  {
    "from": {
      "name": "System.Threading.Timer",
      "version": "4.3.0"
    },
    "to": {
      "name": "System.Runtime",
      "version": "4.3.0"
    },
    "range": "4.3.0"
  },
  {
    "from": {
      "name": "System.Xml.ReaderWriter",
      "version": "4.3.0"
    },
    "to": {
      "name": "System.Collections",
      "version": "4.3.0"
    },
    "range": "4.3.0"
  },
  {
    "from": {
      "name": "System.Xml.ReaderWriter",
      "version": "4.3.0"
    },
    "to": {
      "name": "System.Diagnostics.Debug",
      "version": "4.3.0"
    },
    "range": "4.3.0"
  },
  {
    "from": {
      "name": "System.Xml.ReaderWriter",
      "version": "4.3.0"
    },
    "to": {
      "name": "System.Globalization",
      "version": "4.3.0"
    },
    "range": "4.3.0"
  },
  {
    "from": {
      "name": "System.Xml.ReaderWriter",
      "version": "4.3.0"
    },
    "to": {
      "name": "System.IO",
      "version": "4.3.0"
    },
    "range": "4.3.0"
  },
  {
    "from": {
      "name": "System.Xml.ReaderWriter",
      "version": "4.3.0"
    },
    "to": {
      "name": "System.IO.FileSystem",
      "version": "4.3.0"
    },
    "range": "4.3.0"
  },
  {
    "from": {
      "name": "System.Xml.ReaderWriter",
      "version": "4.3.0"
    },
    "to": {
      "name": "System.IO.FileSystem.Primitives",
      "version": "4.3.0"
    },
    "range": "4.3.0"
  },
  {
    "from": {
      "name": "System.Xml.ReaderWriter",
      "version": "4.3.0"
    },
    "to": {
      "name": "System.Resources.ResourceManager",
      "version": "4.3.0"
    },
    "range": "4.3.0"
  },
  {
    "from": {
      "name": "System.Xml.ReaderWriter",
      "version": "4.3.0"
    },
    "to": {
      "name": "System.Runtime",
      "version": "4.3.0"
    },
    "range": "4.3.0"
  },
  {
    "from": {
      "name": "System.Xml.ReaderWriter",
      "version": "4.3.0"
    },
    "to": {
      "name": "System.Runtime.Extensions",
      "version": "4.3.0"
    },
    "range": "4.3.0"
  },
  {
    "from": {
      "name": "System.Xml.ReaderWriter",
      "version": "4.3.0"
    },
    "to": {
      "name": "System.Runtime.InteropServices",
      "version": "4.3.0"
    },
    "range": "4.3.0"
  },
  {
    "from": {
      "name": "System.Xml.ReaderWriter",
      "version": "4.3.0"
    },
    "to": {
      "name": "System.Text.Encoding",
      "version": "4.3.0"
    },
    "range": "4.3.0"
  },
  {
    "from": {
      "name": "System.Xml.ReaderWriter",
      "version": "4.3.0"
    },
    "to": {
      "name": "System.Text.Encoding.Extensions",
      "version": "4.3.0"
    },
    "range": "4.3.0"
  },
  {
    "from": {
      "name": "System.Xml.ReaderWriter",
      "version": "4.3.0"
    },
    "to": {
      "name": "System.Text.RegularExpressions",
      "version": "4.3.0"
    },
    "range": "4.3.0"
  },
  {
    "from": {
      "name": "System.Xml.ReaderWriter",
      "version": "4.3.0"
    },
    "to": {
      "name": "System.Threading.Tasks",
      "version": "4.3.0"
    },
    "range": "4.3.0"
  },
  {
    "from": {
      "name": "System.Xml.ReaderWriter",
      "version": "4.3.0"
    },
    "to": {
      "name": "System.Threading.Tasks.Extensions",
      "version": "4.3.0"
    },
    "range": "4.3.0"
  },
  {
    "from": {
      "name": "System.Xml.XDocument",
      "version": "4.3.0"
    },
    "to": {
      "name": "System.Collections",
      "version": "4.3.0"
    },
    "range": "4.3.0"
  },
  {
    "from": {
      "name": "System.Xml.XDocument",
      "version": "4.3.0"
    },
    "to": {
      "name": "System.Diagnostics.Debug",
      "version": "4.3.0"
    },
    "range": "4.3.0"
  },
  {
    "from": {
      "name": "System.Xml.XDocument",
      "version": "4.3.0"
    },
    "to": {
      "name": "System.Diagnostics.Tools",
      "version": "4.3.0"
    },
    "range": "4.3.0"
  },
  {
    "from": {
      "name": "System.Xml.XDocument",
      "version": "4.3.0"
    },
    "to": {
      "name": "System.Globalization",
      "version": "4.3.0"
    },
    "range": "4.3.0"
  },
  {
    "from": {
      "name": "System.Xml.XDocument",
      "version": "4.3.0"
    },
    "to": {
      "name": "System.IO",
      "version": "4.3.0"
    },
    "range": "4.3.0"
  },
  {
    "from": {
      "name": "System.Xml.XDocument",
      "version": "4.3.0"
    },
    "to": {
      "name": "System.Reflection",
      "version": "4.3.0"
    },
    "range": "4.3.0"
  },
  {
    "from": {
      "name": "System.Xml.XDocument",
      "version": "4.3.0"
    },
    "to": {
      "name": "System.Resources.ResourceManager",
      "version": "4.3.0"
    },
    "range": "4.3.0"
  },
  {
    "from": {
      "name": "System.Xml.XDocument",
      "version": "4.3.0"
    },
    "to": {
      "name": "System.Runtime",
      "version": "4.3.0"
    },
    "range": "4.3.0"
  },
  {
    "from": {
      "name": "System.Xml.XDocument",
      "version": "4.3.0"
    },
    "to": {
      "name": "System.Runtime.Extensions",
      "version": "4.3.0"
    },
    "range": "4.3.0"
  },
  {
    "from": {
      "name": "System.Xml.XDocument",
      "version": "4.3.0"
    },
    "to": {
      "name": "System.Text.Encoding",
      "version": "4.3.0"
    },
    "range": "4.3.0"
  },
  {
    "from": {
      "name": "System.Xml.XDocument",
      "version": "4.3.0"
    },
    "to": {
      "name": "System.Threading",
      "version": "4.3.0"
    },
    "range": "4.3.0"
  },
  {
    "from": {
      "name": "System.Xml.XDocument",
      "version": "4.3.0"
    },
    "to": {
      "name": "System.Xml.ReaderWriter",
      "version": "4.3.0"
    },
    "range": "4.3.0"
  },
  {
    "from": {
      "name": "runtime.native.System",
      "version": "4.3.0"
    },
    "to": {
      "name": "Microsoft.NETCore.Platforms",
      "version": "1.1.0"
    },
    "range": "1.1.0"
  },
  {
    "from": {
      "name": "runtime.native.System",
      "version": "4.3.0"
    },
    "to": {
      "name": "Microsoft.NETCore.Targets",
      "version": "1.1.0"
    },
    "range": "1.1.0"
  },
  {
    "from": {
      "name": "runtime.native.System.IO.Compression",
      "version": "4.3.0"
    },
    "to": {
      "name": "Microsoft.NETCore.Platforms",
      "version": "1.1.0"
    },
    "range": "1.1.0"
  },
  {
    "from": {
      "name": "runtime.native.System.IO.Compression",
      "version": "4.3.0"
    },
    "to": {
      "name": "Microsoft.NETCore.Targets",
      "version": "1.1.0"
    },
    "range": "1.1.0"
  },
  {
    "from": {
      "name": "runtime.native.System.Net.Http",
      "version": "4.3.0"
    },
    "to": {
      "name": "Microsoft.NETCore.Platforms",
      "version": "1.1.0"
    },
    "range": "1.1.0"
  },
  {
    "from": {
      "name": "runtime.native.System.Net.Http",
      "version": "4.3.0"
    },
    "to": {
      "name": "Microsoft.NETCore.Targets",
      "version": "1.1.0"
    },
    "range": "1.1.0"
  },
  {
    "from": {
      "name": "runtime.native.System.Security.Cryptography.Apple",
      "version": "4.3.0"
    },
    "to": {
      "name": "runtime.osx.10.10-x64.runtime.native.System.Security.Cryptography.Apple",
      "version": "4.3.0"
    },
    "range": "4.3.0"
  },
  {
    "from": {
      "name": "runtime.native.System.Security.Cryptography.OpenSsl",
      "version": "4.3.0"
    },
    "to": {
      "name": "runtime.debian.8-x64.runtime.native.System.Security.Cryptography.OpenSsl",
      "version": "4.3.0"
    },
    "range": "4.3.0"
  },
  {
    "from": {
      "name": "runtime.native.System.Security.Cryptography.OpenSsl",
      "version": "4.3.0"
    },
    "to": {
      "name": "runtime.fedora.23-x64.runtime.native.System.Security.Cryptography.OpenSsl",
      "version": "4.3.0"
    },
    "range": "4.3.0"
  },
  {
    "from": {
      "name": "runtime.native.System.Security.Cryptography.OpenSsl",
      "version": "4.3.0"
    },
    "to": {
      "name": "runtime.fedora.24-x64.runtime.native.System.Security.Cryptography.OpenSsl",
      "version": "4.3.0"
    },
    "range": "4.3.0"
  },
  {
    "from": {
      "name": "runtime.native.System.Security.Cryptography.OpenSsl",
      "version": "4.3.0"
    },
    "to": {
      "name": "runtime.opensuse.13.2-x64.runtime.native.System.Security.Cryptography.OpenSsl",
      "version": "4.3.0"
    },
    "range": "4.3.0"
  },
  {
    "from": {
      "name": "runtime.native.System.Security.Cryptography.OpenSsl",
      "version": "4.3.0"
    },
    "to": {
      "name": "runtime.opensuse.42.1-x64.runtime.native.System.Security.Cryptography.OpenSsl",
      "version": "4.3.0"
    },
    "range": "4.3.0"
  },
  {
    "from": {
      "name": "runtime.native.System.Security.Cryptography.OpenSsl",
      "version": "4.3.0"
    },
    "to": {
      "name": "runtime.osx.10.10-x64.runtime.native.System.Security.Cryptography.OpenSsl",
      "version": "4.3.0"
    },
    "range": "4.3.0"
  },
  {
    "from": {
      "name": "runtime.native.System.Security.Cryptography.OpenSsl",
      "version": "4.3.0"
    },
    "to": {
      "name": "runtime.rhel.7-x64.runtime.native.System.Security.Cryptography.OpenSsl",
      "version": "4.3.0"
    },
    "range": "4.3.0"
  },
  {
    "from": {
      "name": "runtime.native.System.Security.Cryptography.OpenSsl",
      "version": "4.3.0"
    },
    "to": {
      "name": "runtime.ubuntu.14.04-x64.runtime.native.System.Security.Cryptography.OpenSsl",
      "version": "4.3.0"
    },
    "range": "4.3.0"
  },
  {
    "from": {
      "name": "runtime.native.System.Security.Cryptography.OpenSsl",
      "version": "4.3.0"
    },
    "to": {
      "name": "runtime.ubuntu.16.04-x64.runtime.native.System.Security.Cryptography.OpenSsl",
      "version": "4.3.0"
    },
    "range": "4.3.0"
  },
  {
    "from": {
      "name": "runtime.native.System.Security.Cryptography.OpenSsl",
      "version": "4.3.0"
    },
    "to": {
      "name": "runtime.ubuntu.16.10-x64.runtime.native.System.Security.Cryptography.OpenSsl",
      "version": "4.3.0"
    },
    "range": "4.3.0"
  }
]
