{
  "version": "3.0",
  "vulnerabilities": [
    {
      "id": "c8f335869d4930815ce39c7be88359a154e74141f0b47f0402dc97a394eb7df8",
      "category": "dependency_scanning",
      "name": "SQL Injection",
      "message": "SQL Injection in symfony/http-foundation",
      "description": "In Symfony HTTP Methods provided as verbs or using the override header may be treated as trusted input, but they are not validated, possibly causing SQL injection or XSS.",
      "cve": "composer.lock:symfony/http-foundation:gemnasium:48c406df-6a7e-40d8-9347-357776ee41d6",
      "severity": "Critical",
      "solution": "Upgrade to versions 2.7.51, 2.8.50, 3.4.26, 4.2.7 or above.",
      "scanner": {
        "id": "gemnasium",
        "name": "Gemnasium"
      },
      "location": {
        "file": "composer.lock",
        "dependency": {
          "package": {
            "name": "symfony/http-foundation"
          },
          "version": "v3.1.10"
        }
      },
      "identifiers": [
        {
          "type": "gemnasium",
          "name": "Gemnasium-48c406df-6a7e-40d8-9347-357776ee41d6",
          "value": "48c406df-6a7e-40d8-9347-357776ee41d6",
          "url": "https://gitlab.com/gitlab-org/security-products/gemnasium-db/-/blob/v1.2.142/packagist/symfony/http-foundation/CVE-2019-10913.yml"
        },
        {
          "type": "cve",
          "name": "CVE-2019-10913",
          "value": "CVE-2019-10913",
          "url": "https://cve.mitre.org/cgi-bin/cvename.cgi?name=CVE-2019-10913"
        }
      ],
      "links": [
        {
          "url": "https://symfony.com/cve-2019-10913"
        }
      ]
    },
    {
      "id": "5b41d839837ee7758b3087be849405752ece080140d2255121e0a96cbbd11cd6",
      "category": "dependency_scanning",
      "name": "Improper Input Validation",
      "message": "Improper Input Validation in symfony/http-foundation",
      "description": "If an application passes unvalidated user input as the file for which MIME type validation should occur, then arbitrary arguments are passed to the underlying file command. This is related to symfony/http-foundation (and symfony/mime in 4.3.x).",
      "cve": "composer.lock:symfony/http-foundation:gemnasium:de545386-bc70-4e98-b5ef-eabe2cc8e22f",
      "severity": "High",
      "solution": "Upgrade to versions 2.8.52, 3.4.35, 4.2.12, 4.3.8 or above.",
      "scanner": {
        "id": "gemnasium",
        "name": "Gemnasium"
      },
      "location": {
        "file": "composer.lock",
        "dependency": {
          "package": {
            "name": "symfony/http-foundation"
          },
          "version": "v3.1.10"
        }
      },
      "identifiers": [
        {
          "type": "gemnasium",
          "name": "Gemnasium-de545386-bc70-4e98-b5ef-eabe2cc8e22f",
          "value": "de545386-bc70-4e98-b5ef-eabe2cc8e22f",
          "url": "https://gitlab.com/gitlab-org/security-products/gemnasium-db/-/blob/v1.2.142/packagist/symfony/http-foundation/CVE-2019-18888.yml"
        },
        {
          "type": "cve",
          "name": "CVE-2019-18888",
          "value": "CVE-2019-18888",
          "url": "https://cve.mitre.org/cgi-bin/cvename.cgi?name=CVE-2019-18888"
        }
      ],
      "links": [
        {
          "url": "https://symfony.com/cve-2019-18888"
        }
      ]
    },
    {
      "id": "c210182d0a39c4400d883c53e627f6a63a695c9286a430adb54313542aa0fc0d",
      "category": "dependency_scanning",
      "name": "Concurrent Execution using Shared Resource with Improper Synchronization (Race Condition)",
      "message": "Concurrent Execution using Shared Resource with Improper Synchronization (Race Condition) in symfony/http-kernel",
      "description": "The UriSigner was subjectto timing attacks.",
      "cve": "composer.lock:symfony/http-kernel:gemnasium:506fdb16-e220-4d1a-b472-e3bb1d84fe16",
      "severity": "High",
      "solution": "Upgrade to versions 2.8.52, 3.4.35, 4.2.12, 4.3.8 or above.",
      "scanner": {
        "id": "gemnasium",
        "name": "Gemnasium"
      },
      "location": {
        "file": "composer.lock",
        "dependency": {
          "package": {
            "name": "symfony/http-kernel"
          },
          "version": "v3.1.10"
        }
      },
      "identifiers": [
        {
          "type": "gemnasium",
          "name": "Gemnasium-506fdb16-e220-4d1a-b472-e3bb1d84fe16",
          "value": "506fdb16-e220-4d1a-b472-e3bb1d84fe16",
          "url": "https://gitlab.com/gitlab-org/security-products/gemnasium-db/-/blob/v1.2.142/packagist/symfony/http-kernel/CVE-2019-18887.yml"
        },
        {
          "type": "cve",
          "name": "CVE-2019-18887",
          "value": "CVE-2019-18887",
          "url": "https://cve.mitre.org/cgi-bin/cvename.cgi?name=CVE-2019-18887"
        }
      ],
      "links": [
        {
          "url": "https://symfony.com/cve-2019-18887"
        }
      ]
    },
    {
      "id": "0baa94e591726fc153505dab21ce857eaae2403ef4b4b91e7a2bcd37bd542bec",
      "category": "dependency_scanning",
      "name": "Close remember_me Timing Attack Vector",
      "message": "Close remember_me Timing Attack Vector in laravel/framework",
      "description": "This package mishandles the `remember_me token` verification process because `DatabaseUserProvider` does not have constant-time token comparison.",
      "cve": "composer.lock:laravel/framework:gemnasium:5c83436d-2193-4d2a-8c2b-a08896f4e7d2",
      "severity": "Medium",
      "solution": "Upgrade to latest version.",
      "scanner": {
        "id": "gemnasium",
        "name": "Gemnasium"
      },
      "location": {
        "file": "composer.lock",
        "dependency": {
          "package": {
            "name": "laravel/framework"
          },
          "version": "v5.3.31"
        }
      },
      "identifiers": [
        {
          "type": "gemnasium",
          "name": "Gemnasium-5c83436d-2193-4d2a-8c2b-a08896f4e7d2",
          "value": "5c83436d-2193-4d2a-8c2b-a08896f4e7d2",
          "url": "https://gitlab.com/gitlab-org/security-products/gemnasium-db/-/blob/v1.2.142/packagist/laravel/framework/CVE-2017-14775.yml"
        },
        {
          "type": "cve",
          "name": "CVE-2017-14775",
          "value": "CVE-2017-14775",
          "url": "https://cve.mitre.org/cgi-bin/cvename.cgi?name=CVE-2017-14775"
        }
      ],
      "links": [
        {
          "url": "https://github.com/laravel/framework/pull/21320"
        },
        {
          "url": "https://github.com/laravel/framework/releases/tag/v5.5.10"
        },
        {
          "url": "https://laravel-news.com/laravel-v5-5-11"
        }
      ]
    },
    {
      "id": "2956106e4b6735725c5a798d45ec7cbf2d80de8ef56491d770039c96cb0fceb6",
      "category": "dependency_scanning",
      "name": "User phishing",
      "message": "User phishing in laravel/framework",
      "description": "There's a vulnerability that allows phishing attempts on users of the application. Using the password reset system, malicious users can attempt to trick your users into entering their login credentials into a separate application that they control. Since the password reset notification uses the host of the incoming request to build the password reset URL, the host of the password reset URL may be spoofed. If users do not notice that they are not on their intended application's domain, they may accidentally enter their login credentials into a malicious application.",
      "cve": "composer.lock:laravel/framework:gemnasium:b1fc6162-300b-425e-891e-44c3fcbf4d75",
      "severity": "Medium",
      "solution": "Upgrade to fixed version",
      "scanner": {
        "id": "gemnasium",
        "name": "Gemnasium"
      },
      "location": {
        "file": "composer.lock",
        "dependency": {
          "package": {
            "name": "laravel/framework"
          },
          "version": "v5.3.31"
        }
      },
      "identifiers": [
        {
          "type": "gemnasium",
          "name": "Gemnasium-b1fc6162-300b-425e-891e-44c3fcbf4d75",
          "value": "b1fc6162-300b-425e-891e-44c3fcbf4d75",
          "url": "https://gitlab.com/gitlab-org/security-products/gemnasium-db/-/blob/v1.2.142/packagist/laravel/framework/CVE-2017-9303.yml"
        },
        {
          "type": "cve",
          "name": "CVE-2017-9303",
          "value": "CVE-2017-9303",
          "url": "https://cve.mitre.org/cgi-bin/cvename.cgi?name=CVE-2017-9303"
        }
      ],
      "links": [
        {
          "url": "https://laravel.com/docs/5.4/releases#laravel-5.4.22"
        }
      ]
    },
    {
      "id": "c832f83115b15f90645fa423bb0ac6356aa3c5406c35f4e7cae1f0099c6bf96b",
      "category": "dependency_scanning",
      "name": "Insufficient Session Expiration",
      "message": "Insufficient Session Expiration in symfony/http-foundation",
      "description": "The `PDOSessionHandler` class allows storing sessions on a PDO connection. Under some configurations and with a well-crafted payload, it was possible to do a denial of service on a Symfony application without too much resources.",
      "cve": "composer.lock:symfony/http-foundation:gemnasium:27a62549-2bed-461b-bc6d-3d3d69e8c225",
      "severity": "Medium",
      "solution": "Upgrade to versions 2.8.41, 3.4.11, 4.0.11 or above.",
      "scanner": {
        "id": "gemnasium",
        "name": "Gemnasium"
      },
      "location": {
        "file": "composer.lock",
        "dependency": {
          "package": {
            "name": "symfony/http-foundation"
          },
          "version": "v3.1.10"
        }
      },
      "identifiers": [
        {
          "type": "gemnasium",
          "name": "Gemnasium-27a62549-2bed-461b-bc6d-3d3d69e8c225",
          "value": "27a62549-2bed-461b-bc6d-3d3d69e8c225",
          "url": "https://gitlab.com/gitlab-org/security-products/gemnasium-db/-/blob/v1.2.142/packagist/symfony/http-foundation/CVE-2018-11386.yml"
        },
        {
          "type": "cve",
          "name": "CVE-2018-11386",
          "value": "CVE-2018-11386",
          "url": "https://cve.mitre.org/cgi-bin/cvename.cgi?name=CVE-2018-11386"
        }
      ],
      "links": [
        {
          "url": "https://symfony.com/cve-2018-11386"
        }
      ]
    },
    {
      "id": "d4b69021792593f30ccc17e459160c9bf2f5d5d073bf0ffd7d0daf4462a44493",
      "category": "dependency_scanning",
      "name": "URL Rewrite vulnerability",
      "message": "URL Rewrite vulnerability in symfony/http-foundation",
      "description": "An issue in Symfony arises from support for a (legacy) IIS header that lets users override the path in the request URL via the `X-Original-URL` or `X-Rewrite-URL` HTTP request header. These headers are designed for IIS support, but it's not verified that the server is in fact running IIS, which means anybody who can send these requests to an application can trigger this. This affects `\\Symfony\\Component\\HttpFoundation\\Request::prepareRequestUri()` where `X-Original-URL` and `X_REWRITE_URL` are both used. The fix drops support for these methods so that they cannot be used as attack vectors such as web cache poisoning.",
      "cve": "composer.lock:symfony/http-foundation:gemnasium:f9700bc8-c75b-4da8-9806-582fcad4bd7b",
      "severity": "Medium",
      "solution": "Upgrade to versions 2.8.44, 3.4.14, 4.0.14, 4.1.3 or above.",
      "scanner": {
        "id": "gemnasium",
        "name": "Gemnasium"
      },
      "location": {
        "file": "composer.lock",
        "dependency": {
          "package": {
            "name": "symfony/http-foundation"
          },
          "version": "v3.1.10"
        }
      },
      "identifiers": [
        {
          "type": "gemnasium",
          "name": "Gemnasium-f9700bc8-c75b-4da8-9806-582fcad4bd7b",
          "value": "f9700bc8-c75b-4da8-9806-582fcad4bd7b",
          "url": "https://gitlab.com/gitlab-org/security-products/gemnasium-db/-/blob/v1.2.142/packagist/symfony/http-foundation/CVE-2018-14773.yml"
        },
        {
          "type": "cve",
          "name": "CVE-2018-14773",
          "value": "CVE-2018-14773",
          "url": "https://cve.mitre.org/cgi-bin/cvename.cgi?name=CVE-2018-14773"
        }
      ],
      "links": [
        {
          "url": "https://symfony.com/blog/cve-2018-14773-remove-support-for-legacy-and-risky-http-headers"
        }
      ]
    },
    {
      "id": "e2307c4b9e77ccae36dd9fac17901eb1280685469043bb2a270db9addc87ad09",
      "category": "dependency_scanning",
      "name": "Session Fixation",
      "message": "Session Fixation in laravel/framework",
      "description": "Cookie serialization vulnerability in laravel framework.",
      "cve": "composer.lock:laravel/framework:gemnasium:168d8c5c-c985-4019-8381-8e89b2d2975d",
      "severity": "Unknown",
      "solution": "Upgrade to versions 5.5.42, 5.6.30 or above.",
      "scanner": {
        "id": "gemnasium",
        "name": "Gemnasium"
      },
      "location": {
        "file": "composer.lock",
        "dependency": {
          "package": {
            "name": "laravel/framework"
          },
          "version": "v5.3.31"
        }
      },
      "identifiers": [
        {
          "type": "gemnasium",
          "name": "Gemnasium-168d8c5c-c985-4019-8381-8e89b2d2975d",
          "value": "168d8c5c-c985-4019-8381-8e89b2d2975d",
          "url": "https://gitlab.com/gitlab-org/security-products/gemnasium-db/-/blob/v1.2.142/packagist/laravel/framework/2018-08-08-1.yml"
        }
      ],
      "links": [
        {
          "url": "https://laravel.com/docs/5.6/upgrade#upgrade-5.6.30"
        }
      ]
    },
    {
      "id": "ca294dad13b7f2d2634e72dae86a7146e8a9fab03e46c2f485121ac5d560b956",
      "category": "dependency_scanning",
      "name": "Cryptographic Issues",
      "message": "Cryptographic Issues in laravel/framework",
      "description": "Exploit of encryption failure vulnerability",
      "cve": "composer.lock:laravel/framework:gemnasium:626d728d-1ece-46ce-82b2-21fe79484e53",
      "severity": "Unknown",
      "solution": "Upgrade to versions 5.5.40, 5.6.15 or above.",
      "scanner": {
        "id": "gemnasium",
        "name": "Gemnasium"
      },
      "location": {
        "file": "composer.lock",
        "dependency": {
          "package": {
            "name": "laravel/framework"
          },
          "version": "v5.3.31"
        }
      },
      "identifiers": [
        {
          "type": "gemnasium",
          "name": "Gemnasium-626d728d-1ece-46ce-82b2-21fe79484e53",
          "value": "626d728d-1ece-46ce-82b2-21fe79484e53",
          "url": "https://gitlab.com/gitlab-org/security-products/gemnasium-db/-/blob/v1.2.142/packagist/laravel/framework/2018-03-30-1.yml"
        }
      ],
      "links": [
        {
          "url": "https://medium.com/@taylorotwell/laravel-security-release-5-6-15-and-5-5-40-56f1257933a0"
        }
      ]
    },
    {
      "id": "5f2f0365336d0d3d98f2689960ad1631fef50d1f72aece2da13737c4df6d2182",
      "category": "dependency_scanning",
      "name": "Unsafe payload decryption",
      "message": "Unsafe payload decryption in laravel/framework",
      "description": "There's a potential exploit of the Laravel Encrypter component that may cause the Encrypter to fail on decryption and unexpectedly return false. To exploit this, the attacker must be able to modify the encrypted payload before it is decrypted. This could lead to unexpected behavior when combined with weak type comparisons.",
      "cve": "composer.lock:laravel/framework:gemnasium:d6aad686-c9c5-431a-8a0e-2dea585ac020",
      "severity": "Unknown",
      "solution": "Upgrade to latest version.",
      "scanner": {
        "id": "gemnasium",
        "name": "Gemnasium"
      },
      "location": {
        "file": "composer.lock",
        "dependency": {
          "package": {
            "name": "laravel/framework"
          },
          "version": "v5.3.31"
        }
      },
      "identifiers": [
        {
          "type": "gemnasium",
          "name": "Gemnasium-d6aad686-c9c5-431a-8a0e-2dea585ac020",
          "value": "d6aad686-c9c5-431a-8a0e-2dea585ac020",
          "url": "https://gitlab.com/gitlab-org/security-products/gemnasium-db/-/blob/v1.2.142/packagist/laravel/framework/GMS-2018-27.yml"
        }
      ],
      "links": [
        {
          "url": "https://medium.com/@taylorotwell/laravel-security-release-5-6-15-and-5-5-40-56f1257933a0"
        }
      ]
    }
  ],
  "remediations": [],
  "dependency_files": [
    {
      "path": "composer.lock",
      "package_manager": "composer",
      "dependencies": [
        {
          "package": {
            "name": "classpreloader/classpreloader"
          },
          "version": "3.2.0"
        },
        {
          "package": {
            "name": "dnoegel/php-xdg-base-dir"
          },
          "version": "0.1"
        },
        {
          "package": {
            "name": "doctrine/inflector"
          },
          "version": "v1.1.0"
        },
        {
          "package": {
            "name": "jakub-onderka/php-console-color"
          },
          "version": "0.1"
        },
        {
          "package": {
            "name": "jakub-onderka/php-console-highlighter"
          },
          "version": "v0.3.2"
        },
        {
          "package": {
            "name": "jeremeamia/SuperClosure"
          },
          "version": "2.3.0"
        },
        {
          "package": {
            "name": "laravel/framework"
          },
          "version": "v5.3.31"
        },
        {
          "package": {
            "name": "league/flysystem"
          },
          "version": "1.0.42"
        },
        {
          "package": {
            "name": "monolog/monolog"
          },
          "version": "1.23.0"
        },
        {
          "package": {
            "name": "mtdowling/cron-expression"
          },
          "version": "v1.2.1"
        },
        {
          "package": {
            "name": "nesbot/carbon"
          },
          "version": "1.22.1"
        },
        {
          "package": {
            "name": "nikic/php-parser"
          },
          "version": "v3.1.4"
        },
        {
          "package": {
            "name": "paragonie/random_compat"
          },
          "version": "v2.0.11"
        },
        {
          "package": {
            "name": "psr/log"
          },
          "version": "1.0.2"
        },
        {
          "package": {
            "name": "psy/psysh"
          },
          "version": "v0.8.17"
        },
        {
          "package": {
            "name": "ramsey/uuid"
          },
          "version": "3.7.3"
        },
        {
          "package": {
            "name": "swiftmailer/swiftmailer"
          },
          "version": "v5.4.9"
        },
        {
          "package": {
            "name": "symfony/console"
          },
          "version": "v3.1.10"
        },
        {
          "package": {
            "name": "symfony/debug"
          },
          "version": "v3.1.10"
        },
        {
          "package": {
            "name": "symfony/event-dispatcher"
          },
          "version": "v3.4.4"
        },
        {
          "package": {
            "name": "symfony/finder"
          },
          "version": "v3.1.10"
        },
        {
          "package": {
            "name": "symfony/http-foundation"
          },
          "version": "v3.1.10"
        },
        {
          "package": {
            "name": "symfony/http-kernel"
          },
          "version": "v3.1.10"
        },
        {
          "package": {
            "name": "symfony/polyfill-mbstring"
          },
          "version": "v1.7.0"
        },
        {
          "package": {
            "name": "symfony/polyfill-php56"
          },
          "version": "v1.7.0"
        },
        {
          "package": {
            "name": "symfony/polyfill-util"
          },
          "version": "v1.7.0"
        },
        {
          "package": {
            "name": "symfony/process"
          },
          "version": "v3.1.10"
        },
        {
          "package": {
            "name": "symfony/routing"
          },
          "version": "v3.1.10"
        },
        {
          "package": {
            "name": "symfony/translation"
          },
          "version": "v3.1.10"
        },
        {
          "package": {
            "name": "symfony/var-dumper"
          },
          "version": "v3.1.10"
        },
        {
          "package": {
            "name": "vlucas/phpdotenv"
          },
          "version": "v2.4.0"
        }
      ]
    }
  ],
  "scan": {
    "scanner": {
      "id": "gemnasium",
      "name": "Gemnasium",
      "url": "https://gitlab.com/gitlab-org/security-products/analyzers/gemnasium",
      "vendor": {
        "name": "GitLab"
      },
      "version": "2.17.0"
    },
    "type": "dependency_scanning",
    "start_time": "placeholder-value",
    "end_time": "placeholder-value",
    "status": "success"
  }
}