[
{"range":"","error":"version not specified","version":""},
{"range":"==2.0.1","version":"","error":"version not specified"},
{"range":">=0.6.3&&<1.0.1","error":"Could not parse version constraint >=0.6.3&&<1.0.1: Invalid version string \"0.6.3&&<1.0.1\"","version":"1.0.0"},
{"range":">=1.2.3","version":"1.3.3","satisfies":true},
{"range":">=1.2.3","version":"0.0.5","satisfies":false},
{"range":">=1.3.2,<2.4.11","version":"1.3.3","satisfies":true},
{"range":">=1.3.2,<2.4.11","version":"4.5.7","satisfies":false},
{"range":">=1.4,<1.4.11||>=1.5,<1.5.6||>=1.6,<1.6.3","version":"1.6.1","satisfies":true},
{"range":">=1.4,<1.4.11||>=1.5,<1.5.6||>=1.6,<1.6.3","version":"1.0","satisfies":false},
{"range":">=1.4,<1.4.11rc1||>=1.5,<1.5.6||>=1.6,<1.6.3","version":"1.4.10rc1","satisfies":true},
{"range":">=1.4,<1.4.11rc1||>=1.5,<1.5.6||>=1.6,<1.6.3","version":"1.4.11rc1","satisfies":false}
]